Record Type ID,Active,Business Process ID,Created By ID,Created Date,Description,Is Person Type,Name,Namespace Prefix,Record Type Name,SObject Type Name
"012G0000000qdosIAA","true","","005G0000001s55nIAA","01/10/2013T22:20:25.000Z","","false","Business Account","","Business_Account","Account"
"012G0000000qdplIAA","true","","005G0000001s55oIAA","01/15/2013T16:56:57.000Z","","true","Person Account","","PersonAccount","Account"
