"ID","ISDELETED","NAME","RECORDTYPEID","CREATEDDATE","CREATEDBYID","LASTMODIFIEDDATE","LASTMODIFIEDBYID","SYSTEMMODSTAMP","LASTACTIVITYDATE","LASTVIEWEDDATE","LASTREFERENCEDDATE","CONNECTIONRECEIVEDID","CONNECTIONSENTID","PARENTCASE__C","ACCOUNT_NUMBER__C","ACCOUNT_UPDATE__C","ACCOUNTING_REQUEST__C","ATTACH_MEDIA__C","ATTY_INFO_NOT_PROVIDED__C","CREDIT_REPORTING_ACCURACY__C","CONSUMER_EXTERNAL_ID__C","CREDIT_REPORTING_FRP__C","CREDIT_REPORTING_REAGE__C","CREDIT_REPORTING_SOL__C","DM_SENT_DATETIME__C","DM_SENT_STATUS_DATETIME__C","DM_SENT_STATUS__C","DM_SENT_USER__C","DISPUTE_REMOVAL__C","LETTER_CODE__C","LETTER_STATUS_DATETIME__C","LETTER_STATUS__C","MEDIA_BUNDLE_ID__C","PARENTACCOUNT__C","PARENTOPPORTUNITY__C","RECIPIENT_EXTERNAL_ID__C","RECIPIENT_NAME__C","RECIPIENT_TYPE__C","RELATED_PERSON_EXTERNAL_ID__C","RELATED_PERSON_TYPE__C","TX_FIN_CODE__C","UNCLEAR_DISPUTE__C"
"a0x56000000lzTrAAI","false","LTR2019-0000106","01256000000YojOAAS","2019-06-21T00:02:09.000Z","00556000002qbkzAAA","2019-06-21T00:02:28.000Z","00556000002qbkzAAA","2019-06-21T00:02:28.000Z","","","","","","50056000005flP0AAI","300095842","No","No","No","No","No","1115549","No","No","No","2019-06-21T00:02:13.000Z","2019-06-21T00:02:14.000Z","Error!: Internal Server Error","null SVC CSS UAT","No","DRL1","2019-06-21T00:02:28.000Z","Ready to Send","","0015600000FUkpzAAD","00656000006l6XEAAY","1115549","SUZANNEMARIE  JONES","Consumer","","","Yes","No"
"a0x56000000lzDYAAY","false","LTR2019-0000084","01256000000YojOAAS","2019-06-19T10:24:49.000Z","00556000002qbkzAAA","2019-06-19T10:25:08.000Z","00556000002qbkzAAA","2019-06-19T10:25:08.000Z","","","","","","50056000005gYvrAAE","300012413","No","No","No","No","Yes","1034310","Yes","Yes","Yes","2019-06-19T10:25:07.000Z","2019-06-19T10:25:07.000Z","Error!: Internal Server Error","null SVC CSS UAT","No","DRL1","2019-06-19T10:25:08.000Z","Error","","0015600000Fr8eFAAR","00656000006mO5sAAE","1034310","LIEBERMAN  AARON","Consumer","","","Yes","No"
"a0x56000000lxnJAAQ","false","LTR2019-0000057","01256000000YojQAAS","2019-06-11T21:08:01.000Z","00556000002qbkzAAA","2019-06-12T16:46:58.000Z","00556000002qbkzAAA","2019-06-12T16:46:58.000Z","","","","","","50056000005gYybAAE","300002130","No","No","No","No","No","","No","No","No","2019-06-12T16:46:57.000Z","2019-06-12T16:46:58.000Z","Success!","null SVC CSS UAT","No","OI01","2019-06-12T16:46:58.000Z","Sent","","0015600000Fr8gzAAB","00656000006mO83AAE","","","Co-Borrower","","","No","No"
"a0x56000000lxmkAAA","false","LTR2019-0000050","01256000000YojQAAS","2019-06-11T20:41:21.000Z","00556000002qbkzAAA","2019-06-12T16:34:47.000Z","00556000002qbkzAAA","2019-06-12T16:34:47.000Z","","","","","","50056000005gYw1AAE","300034752","No","No","No","No","No","1055623","No","No","No","2019-06-12T16:34:46.000Z","2019-06-12T16:34:47.000Z","Success!","null SVC CSS UAT","No","OI01","2019-06-12T16:34:47.000Z","Sent","","0015600000Fr8fhAAB","00656000006mO7FAAU","1055623","LARA  AARON","Consumer","","","No","No"
"a0x56000000lxoCAAQ","false","LTR2019-0000068","01256000000YojOAAS","2019-06-11T21:29:30.000Z","00556000002qbkzAAA","2019-06-12T16:48:48.000Z","00556000002qbkzAAA","2019-06-12T16:48:48.000Z","","","","","","50056000005gZ0XAAU","300056675","No","No","Yes","No","No","","Yes","No","No","2019-06-12T16:48:46.000Z","2019-06-12T16:48:48.000Z","Success!","null SVC CSS UAT","No","DRL1","2019-06-12T16:48:48.000Z","Sent","300056675.pdf","0015600000Fr90BAAR","00656000006mOF4AAM","45587","Test  Wallnut","CSS POA","45587","CSS_POA","Yes","No"
"a0x56000000lxnYAAQ","false","LTR2019-0000060","01256000000YojRAAS","2019-06-11T21:15:46.000Z","00556000002qbkzAAA","2019-06-12T16:36:21.000Z","00556000002qbkzAAA","2019-06-12T16:36:21.000Z","","","","","","50056000005gYz5AAE","300047470","No","No","Yes","No","No","1068202","No","No","No","2019-06-12T16:36:20.000Z","2019-06-12T16:36:21.000Z","Success!","null SVC CSS UAT","No","TAT01","2019-06-12T16:36:21.000Z","Sent","300047470.pdf","0015600000Fr8zIAAR","00656000006mOEaAAM","1068202","TAUFIQ  ABASSI","Consumer","","","No","No"
"a0x56000000lxnsAAA","false","LTR2019-0000064","01256000000YojRAAS","2019-06-11T21:23:31.000Z","00556000002qbkzAAA","2019-06-12T16:47:24.000Z","00556000002qbkzAAA","2019-06-12T16:47:24.000Z","","","","","","50056000005gYzyAAE","300036187","No","No","No","No","No","","No","No","No","2019-06-12T16:47:23.000Z","2019-06-12T16:47:24.000Z","Success!","null SVC CSS UAT","No","TAT01","2019-06-12T16:47:24.000Z","Sent","","0015600000Fr8y0AAB","00656000006mODmAAM","80","AMIT  KUMAR","Attorney","80","ATTORNEY","No","No"
"a0x56000000lxmpAAA","false","LTR2019-0000051","01256000000YojQAAS","2019-06-11T20:44:00.000Z","00556000002qbkzAAA","2019-06-12T16:35:10.000Z","00556000002qbkzAAA","2019-06-12T16:35:10.000Z","","","","","","50056000005gYwBAAU","300002130","No","No","Yes","No","No","1023930","No","No","No","2019-06-12T16:35:08.000Z","2019-06-12T16:35:09.000Z","Success!","null SVC CSS UAT","No","OI01","2019-06-12T16:35:09.000Z","Sent","300002130.pdf","0015600000Fr8gzAAB","00656000006mO83AAE","1023930","SPENCER  AARON","Consumer","","","Yes","No"
"a0x56000000lxmuAAA","false","LTR2019-0000052","01256000000YojPAAS","2019-06-11T20:56:31.000Z","00556000002qbkzAAA","2019-06-12T16:45:02.000Z","00556000002qbkzAAA","2019-06-12T16:45:02.000Z","","","","","","50056000005gYxOAAU","300014576","No","Yes","No","No","No","","No","No","No","2019-06-12T16:45:00.000Z","2019-06-12T16:45:01.000Z","Success!","null SVC CSS UAT","No","NDRL1","2019-06-12T16:45:02.000Z","Sent","","0015600000Fr86GAAR","00656000006mNuuAAE","45580","Cersie  Lannister","Attorney","45580","ATTORNEY","No","No"
"a0x56000000lyDRAAY","false","LTR2019-0000071","01256000000YojQAAS","2019-06-12T21:29:47.000Z","00556000002qbkzAAA","2019-06-20T22:35:50.000Z","005G0000003H24AIAS","2019-06-20T22:35:50.000Z","","","","","","50056000005flOsAAI","300084548","No","No","Yes","No","No","1491589","No","No","No","","","","","No","OI01","2019-06-12T21:29:48.000Z","Ready to Send","300084548.pdf","0015600000FUkmbAAD","00656000006l6WGAAY","1491589","SALEM  ABUFREJEH","Co-Borrower","","","No","No"
"a0x56000000x2BbAAI","false","LTR2019-0000141","01256000000YojQAAS","2019-09-09T20:36:15.000Z","00556000002qbkzAAA","2019-09-09T20:36:21.000Z","00556000002qbkzAAA","2019-09-09T20:36:21.000Z","","","","","","50056000007CR6NAAW","300541785","No","No","No","No","No","1498992","No","No","No","2019-09-09T20:36:19.000Z","2019-09-09T20:36:20.000Z","Success!","null SVC CSS UAT","No","OI01","2019-09-09T20:36:21.000Z","Sent","","0015600000KSVFEAA5","00656000007mJlwAAE","1498992","BONNIE  EHMANNBAGLEY","Consumer","","","No","No"
"a0x56000000x2BgAAI","false","LTR2019-0000142","01256000000YojPAAS","2019-09-09T20:46:27.000Z","00556000002qbkzAAA","2019-09-09T20:46:32.000Z","00556000002qbkzAAA","2019-09-09T20:46:32.000Z","","","","","","50056000007CRAfAAO","300103795","No","No","No","No","No","1123272","No","No","No","2019-09-09T20:46:31.000Z","2019-09-09T20:46:32.000Z","Success!","null SVC CSS UAT","No","NDRL1","2019-09-09T20:46:32.000Z","Sent","","0015600000KSVe8AAH","00656000007mJnOAAU","1123272","DISA  JONES","Consumer","","","No","No"
"a0x560000019kpsAAA","false","LTR2020-0000168","01256000000YojOAAS","2020-09-15T15:23:00.000Z","00556000005HxsFAAS","2020-09-15T15:23:57.000Z","00556000005HxsFAAS","2020-09-15T15:23:57.000Z","","","","","","50056000005flOjAAI","300197903","No","No","Yes","No","No","1199102","No","No","No","2020-09-15T15:23:54.000Z","2020-09-15T15:23:56.000Z","Success!","Vaibhav Jain","No","DRL1","2020-09-15T15:23:56.000Z","Sent","300197903.pdf","0015600000FUgeQAAT","00656000006l5trAAA","1199102","JAYLENNE  JONES","Consumer","","","No","No"
"a0x56000000x2CtAAI","false","LTR2019-0000157","01256000000YojRAAS","2019-09-09T22:01:35.000Z","00556000002qbkzAAA","2019-09-09T22:01:40.000Z","00556000002qbkzAAA","2019-09-09T22:01:40.000Z","","","","","","50056000007CRH2AAO","300089255","No","No","No","No","No","1109149","No","No","No","2019-09-09T22:01:38.000Z","2019-09-09T22:01:39.000Z","Success!","null SVC CSS UAT","No","TAT01","2019-09-09T22:01:40.000Z","Sent","","0015600000KSW1TAAX","00656000007mJs9AAE","1109149","DARRELL  JONES","Consumer","","","No","No"
"a0x56000000x2CyAAI","false","LTR2019-0000158","01256000000YojPAAS","2019-09-09T22:07:04.000Z","00556000002qbkzAAA","2019-09-09T22:07:09.000Z","00556000002qbkzAAA","2019-09-09T22:07:09.000Z","","","","","","50056000007CRKbAAO","300103135","No","No","No","No","No","1122804","No","No","No","2019-09-09T22:07:07.000Z","2019-09-09T22:07:08.000Z","Success!","null SVC CSS UAT","Yes","NDRL1","2019-09-09T22:07:09.000Z","Sent","","0015600000KSW3UAAX","00656000007mJt2AAE","1122804","SUSAN  JONES","Consumer","","","No","No"
"a0x560000019ksXAAQ","false","LTR2020-0000175","01256000000YojRAAS","2020-09-16T15:17:49.000Z","00556000002qalrAAA","2020-09-16T15:17:57.000Z","00556000002qalrAAA","2020-09-16T15:17:57.000Z","","","","","","50056000007qdv4AAA","300028670","No","No","No","No","No","1050057","No","No","No","2020-09-16T15:17:55.000Z","2020-09-16T15:17:56.000Z","Success!","null svc_dm_int_api_uat","No","TAT01","2020-09-16T15:17:57.000Z","Sent","","0015600000OOUpnAAH","00656000009cJCuAAM","1050057","Tate  Denise","Consumer","","","No","No"
"a0x56000000x2B7AAI","false","LTR2019-0000136","01256000000YojOAAS","2019-09-09T20:09:35.000Z","00556000002qbkzAAA","2019-09-09T20:09:51.000Z","00556000002qbkzAAA","2019-09-09T20:09:51.000Z","","","","","","50056000007CQWYAA4","300418028","No","No","No","No","No","1418237","No","No","Yes","2019-09-09T20:09:49.000Z","2019-09-09T20:09:50.000Z","Success!","null SVC CSS UAT","No","DRL1","2019-09-09T20:09:51.000Z","Sent","","0015600000KSV06AAH","00656000007mJjlAAE","1418237","MINELA  ZORNIC","Consumer","","","No","No"
"a0x56000000x2AiAAI","false","LTR2019-0000131","01256000000YojOAAS","2019-09-09T19:56:30.000Z","00556000002qbkzAAA","2019-09-09T19:56:36.000Z","00556000002qbkzAAA","2019-09-09T19:56:36.000Z","","","","","","50056000007CQUmAAO","300059860","No","No","No","No","No","1080761","No","Yes","No","2019-09-09T19:56:34.000Z","2019-09-09T19:56:36.000Z","Success!","null SVC CSS UAT","No","DRL1","2019-09-09T19:56:36.000Z","Sent","","0015600000KSUxRAAX","00656000007mJinAAE","1080761","PATRICIA  DOUSETTE","Consumer","","","No","No"
"a0x560000019l0lAAA","false","LTR2020-0000194","01256000000YojRAAS","2020-09-17T16:36:09.000Z","005G0000004HGkjIAG","2020-09-17T16:36:21.000Z","005G0000004HGkjIAG","2020-09-17T16:36:21.000Z","","","","","","50056000007qiGzAAI","300028678","No","No","No","No","No","","No","No","No","2020-09-17T16:36:18.000Z","2020-09-17T16:36:21.000Z","Success!","Varun Sharma","No","TAT01","2020-09-17T16:36:21.000Z","Sent","","0015600000R2YiwAAF","0065600000D0uSiAAJ","609495","One main financial","CSS POA","609495","CSS_POA","No","No"
"a0x560000019l0gAAA","false","LTR2020-0000193","01256000000YojRAAS","2020-09-17T16:34:21.000Z","005G0000004HGkjIAG","2020-09-17T16:34:55.000Z","005G0000004HGkjIAG","2020-09-17T16:34:55.000Z","","","","","","50056000007qiGzAAI","300028678","No","No","No","No","No","","No","No","No","","","","","No","TAT01","2020-09-17T16:34:21.000Z","Ready to Send","","0015600000R2YiwAAF","0065600000D0uSiAAJ","609495","One main financial","CSS POA","609495","CSS_POA","No","No"
"a0x560000019kxcAAA","false","LTR2020-0000189","01256000000YojQAAS","2020-09-17T12:40:42.000Z","00556000004DSOCAA4","2020-09-17T12:40:50.000Z","00556000004DSOCAA4","2020-09-17T12:40:50.000Z","","","","","","50056000007SRfMAAW","300028672","No","No","No","No","No","1050059","No","No","No","2020-09-17T12:40:49.000Z","2020-09-17T12:40:49.000Z","Success!","Amit Tanwar","No","OI01","2020-09-17T12:40:50.000Z","Sent","","0015600000OOUpxAAH","00656000009cJD4AAM","1050059","ORNELAS  SOTERA","Co-Borrower","","","No","No"
"a0x56000000x2CFAAY","false","LTR2019-0000149","01256000000YojPAAS","2019-09-09T21:11:04.000Z","00556000002qbkzAAA","2019-09-09T21:11:08.000Z","00556000002qbkzAAA","2019-09-09T21:11:08.000Z","","","","","","50056000007CRCgAAO","300408632","No","No","No","No","No","1408490","No","No","No","2019-09-09T21:11:07.000Z","2019-09-09T21:11:08.000Z","Success!","null SVC CSS UAT","No","NDRL1","2019-09-09T21:11:08.000Z","Sent","","0015600000KSVjmAAH","00656000007mJp0AAE","1408490","PATTRICK  KUTCH","Consumer","","","No","No"
"a0x56000000x2CAAAY","false","LTR2019-0000148","01256000000YojOAAS","2019-09-09T21:10:58.000Z","00556000002qbkzAAA","2019-09-09T21:11:29.000Z","00556000002qbkzAAA","2019-09-09T21:11:29.000Z","","","","","","50056000007CRCbAAO","300552467","No","No","Yes","No","No","1546111","Yes","No","No","2019-09-09T21:11:28.000Z","2019-09-09T21:11:29.000Z","Success!","null SVC CSS UAT","No","DRL1","2019-09-09T21:11:29.000Z","Sent","300552467.pdf","0015600000KSVjhAAH","00656000007mJovAAE","1546111","EPIFUNIO  RAMIREZ","Co-Borrower","","","No","No"
"a0x56000000xBxnAAE","false","LTR2019-0000161","01256000000YojOAAS","2019-09-13T20:49:21.000Z","00556000002qbkzAAA","2019-09-13T20:49:31.000Z","00556000002qbkzAAA","2019-09-13T20:49:31.000Z","","","","","","50056000007CbJdAAK","300059860","No","No","No","No","No","1080761","No","Yes","No","2019-09-13T20:49:30.000Z","2019-09-13T20:49:30.000Z","Success!","null SVC CSS UAT","No","DRL1","2019-09-13T20:49:31.000Z","Sent","","0015600000KSUxRAAX","00656000007mJinAAE","1080761","PATRICIA  DOUSETTE","Consumer","","","No","No"
"a0x560000019kfNAAQ","false","LTR2020-0000166","01256000000YojRAAS","2020-09-11T13:30:31.000Z","00556000004DSOCAA4","2020-09-11T13:30:33.000Z","00556000004DSOCAA4","2020-09-11T13:30:33.000Z","","2020-09-22T10:59:18.000Z","2020-09-22T10:59:18.000Z","","","50056000007SRf7AAG","300028668","No","No","No","No","No","1050055","No","No","No","","","","","No","TAT01","2020-09-11T13:30:33.000Z","Ready to Send","","0015600000OOUpdAAH","00656000009cJCkAAM","1050055","Lambert  Terry","Consumer","","","No","No"
"a0x560000019l0MAAQ","false","LTR2020-0000191","01256000000YojRAAS","2020-09-17T16:14:56.000Z","005G0000004HGkjIAG","2020-09-17T16:15:04.000Z","005G0000004HGkjIAG","2020-09-17T16:15:04.000Z","","","","","","50056000007qiFmAAI","300028678","No","No","No","No","No","1050065","No","No","No","2020-09-17T16:15:03.000Z","2020-09-17T16:15:04.000Z","Success!","Varun Sharma","No","TAT01","2020-09-17T16:15:04.000Z","Sent","","0015600000R2YiwAAF","0065600000D0uSiAAJ","1050065","GRAY  ELWYN","Consumer","","","No","No"
"a0x560000019kscAAA","false","LTR2020-0000176","01256000000YojOAAS","2020-09-16T15:38:27.000Z","00516000006YNQUAA4","2020-09-16T15:38:28.000Z","00516000006YNQUAA4","2020-09-16T15:38:28.000Z","","","","","","50056000005fw3OAAQ","300101734","No","No","Yes","No","No","1121019","No","No","No","","","","","No","DRL1","2020-09-16T15:38:28.000Z","Ready to Send","300101734.pdf","0015600000FUkqYAAT","00656000006l6XnAAI","1121019","JASON  JONES","Consumer","","","No","Yes"
"a0x560000010mJ1AAI","false","LTR2020-0000165","01256000000YojOAAS","2020-04-22T12:19:56.000Z","00556000004lR0PAAU","2020-04-22T12:19:57.000Z","00556000004lR0PAAU","2020-04-22T12:19:57.000Z","","","","","","50056000007RJAaAAO","300213426","No","No","Yes","No","No","1214263","No","No","No","","","","","No","DRL1","2020-04-22T12:19:57.000Z","Ready to Send","300213426.pdf","0015600000NmUpSAAV","00656000009FPJcAAO","1214263","STEVEN  JONES","Consumer","","","No","Yes"
"a0x56000000lykpAAA","false","LTR2019-0000080","01256000000YojOAAS","2019-06-14T18:49:55.000Z","00556000002qbkzAAA","2019-06-14T20:27:02.000Z","00556000002qalrAAA","2019-06-14T20:27:02.000Z","","","","","","50056000005i1eGAAQ","300029846","No","No","Yes","No","Yes","1000243","No","No","No","2019-06-14T18:50:01.000Z","2019-06-14T18:50:02.000Z","Success!","null SVC CSS UAT","No","DRL1","2019-06-14T20:27:02.000Z","Missing Media","300029846.pdf","0015600000Fr8zwAAB","00656000006mOEuAAM","1000243","JAMES  ABBE","Consumer","","","No","No"
"a0x56000000lykuAAA","false","LTR2019-0000081","01256000000YojPAAS","2019-06-14T18:51:16.000Z","00556000002qbkzAAA","2019-06-14T20:27:02.000Z","00556000002qalrAAA","2019-06-14T20:27:02.000Z","","","","","","50056000005i1eaAAA","300437793","No","Yes","Yes","No","No","1438296","No","No","No","2019-06-14T18:51:20.000Z","2019-06-14T18:51:21.000Z","Success!","null SVC CSS UAT","No","NDRL1","2019-06-14T20:27:02.000Z","Missing Media","300437793.pdf","0015600000Fr914AAB","00656000006mOFEAA2","1438296","JONATHAN  ABDALLA","Consumer","","","No","No"
"a0x56000000lzDTAAY","false","LTR2019-0000083","01256000000YojOAAS","2019-06-19T08:47:14.000Z","00556000002qbkzAAA","2019-06-19T08:49:22.000Z","00556000002qbkzAAA","2019-06-19T08:49:22.000Z","","","","","","50056000005flPAAAY","300136231","No","No","No","No","No","1150432","No","No","No","2019-06-19T08:49:21.000Z","2019-06-19T08:49:21.000Z","Error!: Internal Server Error","null SVC CSS UAT","No","DRL1","2019-06-19T08:49:22.000Z","Error","","0015600000FUkqxAAD","00656000006l6YCAAY","1150432","KELSEY  JONES","Consumer","","","No","No"
"a0x56000000lykaAAA","false","LTR2019-0000077","01256000000YojOAAS","2019-06-14T18:44:05.000Z","00556000002qbkzAAA","2019-06-14T20:27:02.000Z","00556000002qalrAAA","2019-06-14T20:27:02.000Z","","","","","","50056000005i1bnAAA","300014576","No","No","Yes","No","No","1036372","No","No","No","2019-06-14T18:44:17.000Z","2019-06-14T18:44:18.000Z","Success!","null SVC CSS UAT","No","DRL1","2019-06-14T20:27:02.000Z","Missing Media","300014576.pdf","0015600000Fr86GAAR","00656000006mNuuAAE","1036372","HOPPER  AARON","Consumer","","","No","Yes"
"a0x56000000lzR7AAI","false","LTR2019-0000102","01256000000YojOAAS","2019-06-20T23:31:28.000Z","00556000002qbkzAAA","2019-06-20T23:36:07.000Z","00556000002qbkzAAA","2019-06-20T23:36:07.000Z","","","","","","50056000005z19wAAA","300004802","No","No","No","No","No","1026800","No","No","No","2019-06-20T23:35:53.000Z","2019-06-20T23:35:53.000Z","Error!: Internal Server Error","null SVC CSS UAT","No","DRL1","2019-06-20T23:36:07.000Z","Ready to Send","","0015600000FUggTAAT","00656000006l5u6AAA","1026800","JOHNSON  ARIEL","Consumer","","","No","Yes"
"a0x56000000lzTwAAI","false","LTR2019-0000107","01256000000YojPAAS","2019-06-21T00:03:39.000Z","00556000002qbkzAAA","2019-06-21T00:03:54.000Z","00556000002qbkzAAA","2019-06-21T00:03:54.000Z","","","","","","50056000005flPAAAY","300136231","No","No","Yes","No","No","1150432","No","No","No","2019-06-21T00:03:43.000Z","2019-06-21T00:03:44.000Z","Error!: Internal Server Error","null SVC CSS UAT","No","NDRL1","2019-06-21T00:03:54.000Z","Ready to Send","300136231.pdf","0015600000FUkqxAAD","00656000006l6YCAAY","1150432","KELSEY  JONES","Consumer","","","No","No"
"a0x56000000lzV4AAI","false","LTR2019-0000110","01256000000YojOAAS","2019-06-21T17:25:00.000Z","005G0000003H24AIAS","2019-06-26T22:04:10.000Z","005G0000003H24AIAS","2019-06-26T22:04:10.000Z","","","","","","50056000005flOlAAI","300004802","No","No","Yes","No","No","1026800","No","No","No","2019-06-26T22:04:09.000Z","2019-06-26T22:04:10.000Z","Success!","Data Management","No","DRL1","2019-06-26T22:04:10.000Z","Sent","300004802.pdf","0015600000FUggTAAT","00656000006l5u6AAA","1026800","JOHNSON  ARIEL","Consumer","","","No","No"
"a0x56000000lzKjAAI","false","LTR2019-0000098","01256000000YojOAAS","2019-06-20T16:46:08.000Z","00556000002qbkzAAA","2019-06-20T16:46:27.000Z","00556000002qbkzAAA","2019-06-20T16:46:27.000Z","","","","","","50056000005flOhAAI","300084056","No","No","Yes","No","No","1429128","No","No","Yes","2019-06-20T16:46:26.000Z","2019-06-20T16:46:27.000Z","Success!","null SVC CSS UAT","No","DRL1","2019-06-20T16:46:27.000Z","Sent","300084056.pdf","0015600000FUgPrAAL","00656000006l5sjAAA","1429128","MOHAMMED  ALMALALLAH","Co-Borrower","","","Yes","No"
"a0x56000000lzKUAAY","false","LTR2019-0000095","01256000000YojRAAS","2019-06-20T16:41:48.000Z","00556000002qbkzAAA","2019-06-20T16:42:09.000Z","00556000002qbkzAAA","2019-06-20T16:42:09.000Z","","","","","","50056000005gZ08AAE","300067913","No","No","No","No","No","","No","No","No","2019-06-20T16:42:07.000Z","2019-06-20T16:42:08.000Z","Success!","null SVC CSS UAT","No","TAT01","2019-06-20T16:42:09.000Z","Sent","","0015600000Fr8ytAAB","00656000006mOEBAA2","45585","East  West","CSS POA","45585","CSS_POA","No","No"
"a0x56000000lzKeAAI","false","LTR2019-0000097","01256000000YojOAAS","2019-06-20T16:44:54.000Z","00556000002qbkzAAA","2019-06-20T16:45:13.000Z","00556000002qbkzAAA","2019-06-20T16:45:13.000Z","","","","","","50056000005yzd2AAA","1018895","No","No","No","No","Yes","","No","No","No","2019-06-20T16:45:12.000Z","2019-06-20T16:45:12.000Z","Success!","null SVC CSS UAT","No","DRL1","2019-06-20T16:45:13.000Z","Sent","","0015600000FUkqTAAT","00656000006l6XiAAI","45441","Legalette  Eagleton","Attorney","45441","ATTORNEY","No","No"
"a0x56000000lzTSAAY","false","LTR2019-0000103","01256000000YojOAAS","2019-06-20T23:47:40.000Z","00556000002qbkzAAA","2019-06-20T23:48:42.000Z","00556000002qbkzAAA","2019-06-20T23:48:42.000Z","","","","","","50056000005z19wAAA","300004802","No","No","No","No","Yes","1026800","No","No","No","2019-06-20T23:48:32.000Z","2019-06-20T23:48:33.000Z","Error!: Internal Server Error","null SVC CSS UAT","No","DRL1","2019-06-20T23:48:42.000Z","Ready to Send","","0015600000FUggTAAT","00656000006l5u6AAA","1026800","JOHNSON  ARIEL","Consumer","","","No","No"
"a0x56000000lzOmAAI","false","LTR2019-0000101","01256000000YojPAAS","2019-06-20T19:53:56.000Z","00556000002qbkzAAA","2019-06-20T19:54:21.000Z","00556000002qbkzAAA","2019-06-20T19:54:21.000Z","","","","","","50056000005flOmAAI","1000994","Yes","No","Yes","No","No","1000896","No","No","No","2019-06-20T19:54:21.000Z","2019-06-20T19:54:21.000Z","Error!: Internal Server Error","null SVC CSS UAT","No","NDRL1","2019-06-20T19:54:21.000Z","Error","1000994.pdf","0015600000FUkl9AAD","00656000006l6VhAAI","1000896","DONALD  STOKES","Consumer","","","Yes","No"
"a0x56000000lzTmAAI","false","LTR2019-0000105","01256000000YojOAAS","2019-06-20T23:59:22.000Z","00556000002qbkzAAA","2019-06-21T00:00:13.000Z","00556000002qbkzAAA","2019-06-21T00:00:13.000Z","","","","","","50056000005z1AfAAI","300002969","No","No","No","No","Yes","1024769","No","No","No","2019-06-21T00:00:06.000Z","2019-06-21T00:00:06.000Z","Error!: Internal Server Error","null SVC CSS UAT","No","DRL1","2019-06-21T00:00:13.000Z","Ready to Send","","0015600000FUknUAAT","00656000006l6WLAAY","1024769","GUERRA  JOSE","Consumer","","","No","No"
"a0x560000019kshAAA","false","LTR2020-0000177","01256000000YojOAAS","2020-09-16T15:42:51.000Z","00516000006YNQUAA4","2020-09-16T15:42:51.000Z","00516000006YNQUAA4","2020-09-16T15:42:51.000Z","","","","","","50056000005fw3OAAQ","300101734","No","No","Yes","No","No","1121019","No","No","No","","","","","No","DRL1","2020-09-16T15:42:51.000Z","Ready to Send","300101734.pdf","0015600000FUkqYAAT","00656000006l6XnAAI","1121019","JASON  JONES","Consumer","","","No","Yes"
"a0x56000000x26HAAQ","false","LTR2019-0000127","01256000000YojOAAS","2019-09-09T19:37:24.000Z","00556000002qbkzAAA","2019-09-09T19:37:41.000Z","00556000002qbkzAAA","2019-09-09T19:37:41.000Z","","","","","","50056000007CQToAAO","300070381","No","No","No","No","No","1091088","No","Yes","No","2019-09-09T19:37:39.000Z","2019-09-09T19:37:41.000Z","Success!","null SVC CSS UAT","No","DRL1","2019-09-09T19:37:41.000Z","Sent","","0015600000KSSN2AAP","00656000007mJdOAAU","1091088","RAUL  HERNANDEZ","Consumer","","","No","No"
"a0x560000019krZAAQ","false","LTR2020-0000172","01256000000YojOAAS","2020-09-16T14:07:13.000Z","00556000004DSOCAA4","2020-09-16T14:07:14.000Z","00556000004DSOCAA4","2020-09-16T14:07:14.000Z","","","","","","50056000007qe9ZAAQ","300692140","No","No","No","No","No","1709845","No","No","No","","","","","No","DRL1","2020-09-16T14:07:14.000Z","Ready to Send","","0015600000ObdkjAAB","00656000009jXRqAAM","1709845","ERRIN  REID","Consumer","","","No","Yes"
"a0x560000019l0RAAQ","false","LTR2020-0000192","01256000000YojRAAS","2020-09-17T16:28:21.000Z","005G0000004HGkjIAG","2020-09-17T16:28:49.000Z","005G0000004HGkjIAG","2020-09-17T16:28:49.000Z","","","","","","50056000007qiGpAAI","300028678","No","No","No","No","No","","No","No","No","2020-09-17T16:28:48.000Z","2020-09-17T16:28:48.000Z","Success!","Varun Sharma","No","TAT01","2020-09-17T16:28:49.000Z","Sent","","0015600000R2YiwAAF","0065600000D0uSiAAJ","609494","Integrity 1st Financial Services & Consulting","Attorney","609494","ATTORNEY","No","No"
"a0x56000000xGTpAAM","false","LTR2019-0000163","01256000000YojRAAS","2019-09-17T20:15:15.000Z","00556000002qbkzAAA","2019-09-17T20:15:43.000Z","00556000002qbkzAAA","2019-09-17T20:15:43.000Z","","","","","","50056000007CilsAAC","300498191","No","No","No","No","No","1494486","No","No","No","2019-09-17T20:15:41.000Z","2019-09-17T20:15:42.000Z","Success!","null SVC CSS UAT","No","TAT01","2019-09-17T20:15:42.000Z","Sent","","0015600000KUrYqAAL","00656000007muEGAAY","1494486","MICHAEL  WINES","Consumer","","","No","No"
"a0x560000019l0qAAA","false","LTR2020-0000195","01256000000YojOAAS","2020-09-17T16:41:36.000Z","00556000004DSOCAA4","2020-09-17T16:41:45.000Z","00556000004DSOCAA4","2020-09-17T16:41:45.000Z","","","","","","50056000007SRciAAG","300028669","No","No","No","No","Yes","","No","No","No","2020-09-17T16:41:44.000Z","2020-09-17T16:41:45.000Z","Success!","Amit Tanwar","No","DRL1","2020-09-17T16:41:45.000Z","Sent","","0015600000OOUpiAAH","00656000009cJCpAAM","","","Attorney","","ATTORNEY","No","No"
"a0x560000019l0vAAA","false","LTR2020-0000196","01256000000YojPAAS","2020-09-17T16:45:16.000Z","00556000004DSOCAA4","2020-09-17T16:45:23.000Z","00556000004DSOCAA4","2020-09-17T16:45:23.000Z","","","","","","50056000007SRbuAAG","300028673","No","Yes","No","No","No","","No","No","No","2020-09-17T16:45:22.000Z","2020-09-17T16:45:23.000Z","Success!","Amit Tanwar","No","NDRL1","2020-09-17T16:45:23.000Z","Sent","","0015600000OOUq7AAH","00656000009cJD9AAM","","","CSS POA","","CSS_POA","No","No"
"a0x56000000x2AnAAI","false","LTR2019-0000132","01256000000YojRAAS","2019-09-09T19:58:32.000Z","00556000002qbkzAAA","2019-09-09T19:58:52.000Z","00556000002qbkzAAA","2019-09-09T19:58:52.000Z","","","","","","50056000007CQV1AAO","300124581","No","No","No","No","No","1144504","No","No","No","2019-09-09T19:58:50.000Z","2019-09-09T19:58:51.000Z","Success!","null SVC CSS UAT","No","TAT01","2019-09-09T19:58:52.000Z","Sent","","0015600000KSUxgAAH","00656000007mJisAAE","1144504","ORLANDO  JONES","Consumer","","","No","No"
"a0x56000000x2CKAAY","false","LTR2019-0000150","01256000000YojOAAS","2019-09-09T21:13:49.000Z","00556000002qbkzAAA","2019-09-09T21:14:06.000Z","00556000002qbkzAAA","2019-09-09T21:14:06.000Z","","","","","","50056000007CRCvAAO","300554779","No","No","No","No","No","1542691","No","No","No","2019-09-09T21:14:05.000Z","2019-09-09T21:14:06.000Z","Success!","null SVC CSS UAT","No","DRL1","2019-09-09T21:14:06.000Z","Sent","","0015600000KSVk6AAH","00656000007mJpFAAU","1542691","LAQUANZA  ELLIS","Co-Borrower","","","No","Yes"
"a0x56000000x2CeAAI","false","LTR2019-0000154","01256000000YojOAAS","2019-09-09T21:51:23.000Z","00556000002qbkzAAA","2019-09-09T21:51:49.000Z","00556000002qbkzAAA","2019-09-09T21:51:49.000Z","","","","","","50056000007CRESAA4","300090254","No","No","No","No","No","1110138","No","No","No","2019-09-09T21:51:48.000Z","2019-09-09T21:51:49.000Z","Success!","null SVC CSS UAT","No","DRL1","2019-09-09T21:51:49.000Z","Sent","","0015600000KSVmgAAH","00656000007mJr1AAE","1110138","EVELYN  JONES","Consumer","","","No","Yes"
"a0x56000000x2B2AAI","false","LTR2019-0000135","01256000000YojRAAS","2019-09-09T20:06:16.000Z","00556000002qbkzAAA","2019-09-09T20:06:22.000Z","00556000002qbkzAAA","2019-09-09T20:06:22.000Z","","","","","","50056000007CQW4AAO","300065958","No","No","No","No","No","1086960","No","No","No","2019-09-09T20:06:20.000Z","2019-09-09T20:06:21.000Z","Success!","null SVC CSS UAT","No","TAT01","2019-09-09T20:06:22.000Z","Sent","","0015600000KSUzcAAH","00656000007mJjbAAE","1086960","JACQUELINE  MCGINTIS","Consumer","","","No","No"
"a0x560000019l0rAAA","false","LTR2020-0000198","01256000000YojPAAS","2020-09-17T17:03:55.000Z","005G0000004HGkjIAG","2020-09-17T17:04:04.000Z","005G0000004HGkjIAG","2020-09-17T17:04:04.000Z","","","","","","50056000007qiHYAAY","300028671","No","No","No","No","No","1050058","No","No","No","2020-09-17T17:04:02.000Z","2020-09-17T17:04:03.000Z","Success!","Varun Sharma","No","NDRL1","2020-09-17T17:04:04.000Z","Sent","","0015600000OOUpsAAH","00656000009cJCzAAM","1050058","Salazar  Alexandra","Consumer","","","No","No"
"a0x56000000x2BHAAY","false","LTR2019-0000138","01256000000YojQAAS","2019-09-09T20:14:55.000Z","00556000002qbkzAAA","2019-09-09T20:15:01.000Z","00556000002qbkzAAA","2019-09-09T20:15:01.000Z","","","","","","50056000007CQbsAAG","300561797","No","No","No","No","No","1539460","No","No","No","2019-09-09T20:14:59.000Z","2019-09-09T20:15:01.000Z","Success!","null SVC CSS UAT","No","OI01","2019-09-09T20:15:01.000Z","Sent","","0015600000KSV1xAAH","00656000007mJkAAAU","1539460","GINA  OSHEA","Consumer","","","No","No"
"a0x560000019kxhAAA","false","LTR2020-0000190","01256000000YojQAAS","2020-09-17T13:24:39.000Z","00556000004DSOCAA4","2020-09-17T13:24:49.000Z","00556000004DSOCAA4","2020-09-17T13:24:49.000Z","","","","","","50056000007SRfMAAW","300028672","No","No","No","No","No","1050059","No","No","No","2020-09-17T13:24:48.000Z","2020-09-17T13:24:48.000Z","Success!","Amit Tanwar","No","OI01","2020-09-17T13:24:49.000Z","Sent","","0015600000OOUpxAAH","00656000009cJD4AAM","1050059","ORNELAS  SOTERA","Consumer","","","No","No"
"a0x56000000x2AYAAY","false","LTR2019-0000130","01256000000YojPAAS","2019-09-09T19:52:12.000Z","00556000002qbkzAAA","2019-09-09T19:52:42.000Z","00556000002qbkzAAA","2019-09-09T19:52:42.000Z","","","","","","50056000007CQU8AAO","300140478","No","No","No","No","No","1152763","No","No","No","2019-09-09T19:52:40.000Z","2019-09-09T19:52:41.000Z","Success!","null SVC CSS UAT","Yes","NDRL1","2019-09-09T19:52:42.000Z","Sent","","0015600000KSSQfAAP","00656000007mJelAAE","1152763","FREDERICK  JONES","Consumer","","","No","No"
"a0x56000000x2AxAAI","false","LTR2019-0000134","01256000000YojRAAS","2019-09-09T20:02:35.000Z","00556000002qbkzAAA","2019-09-09T20:02:50.000Z","00556000002qbkzAAA","2019-09-09T20:02:50.000Z","","","","","","50056000007CQVLAA4","300410672","No","No","No","No","No","1410486","No","No","No","2019-09-09T20:02:48.000Z","2019-09-09T20:02:49.000Z","Success!","null SVC CSS UAT","No","TAT01","2019-09-09T20:02:50.000Z","Sent","","0015600000KSUyPAAX","00656000007mJjCAAU","1410486","CYNTHIA  HENLEY","Consumer","","","No","No"
"a0x56000000x2BRAAY","false","LTR2019-0000140","01256000000YojQAAS","2019-09-09T20:28:11.000Z","00556000002qbkzAAA","2019-09-09T20:28:25.000Z","00556000002qbkzAAA","2019-09-09T20:28:25.000Z","","","","","","50056000007CQxQAAW","300060101","No","No","No","No","No","1081101","No","No","No","2019-09-09T20:28:23.000Z","2019-09-09T20:28:24.000Z","Success!","null SVC CSS UAT","No","OI01","2019-09-09T20:28:24.000Z","Sent","","0015600000KSV9MAAX","00656000007mJlNAAU","1081101","ERNESTO  ROBLES","Consumer","","","No","No"
"a0x56000000x2BCAAY","false","LTR2019-0000137","01256000000YojRAAS","2019-09-09T20:12:16.000Z","00556000002qbkzAAA","2019-09-09T20:13:04.000Z","00556000002qbkzAAA","2019-09-09T20:13:04.000Z","","","","","","50056000007CQY5AAO","300407734","No","No","No","No","No","1407492","No","No","No","2019-09-09T20:13:03.000Z","2019-09-09T20:13:04.000Z","Success!","null SVC CSS UAT","No","TAT01","2019-09-09T20:13:04.000Z","Sent","","0015600000KSQjNAAX","00656000007mITvAAM","1407492","JOSEPH  BERGER","Consumer","","","No","No"
"a0x560000019l1jAAA","false","LTR2020-0000205","01256000000YojPAAS","2020-09-17T18:07:02.000Z","005G0000004HGkjIAG","2020-09-17T18:07:16.000Z","005G0000004HGkjIAG","2020-09-17T18:07:16.000Z","","","","","","50056000007qiJ0AAI","300028702","No","No","No","No","No","1049964","No","No","No","2020-09-17T18:07:14.000Z","2020-09-17T18:07:15.000Z","Success!","Varun Sharma","No","NDRL1","2020-09-17T18:07:15.000Z","Sent","","0015600000R2Z1DAAV","0065600000D0ueyAAB","1049964","NEUMANN  CATHERINE","Consumer","","","No","No"
"a0x560000019kxNAAQ","false","LTR2020-0000186","01256000000YojOAAS","2020-09-17T12:29:20.000Z","00556000004DSOCAA4","2020-09-17T12:29:30.000Z","00556000004DSOCAA4","2020-09-17T12:29:30.000Z","","","","","","50056000007SRciAAG","300028669","No","No","Yes","No","Yes","","No","No","No","2020-09-17T12:29:28.000Z","2020-09-17T12:29:30.000Z","Success!","Amit Tanwar","No","DRL1","2020-09-17T12:29:30.000Z","Sent","300028669.pdf","0015600000OOUpiAAH","00656000009cJCpAAM","","","CSS POA","","CSS_POA","No","No"
"a0x56000000x25YAAQ","false","LTR2019-0000126","01256000000YojRAAS","2019-09-09T19:28:58.000Z","00556000002qbkzAAA","2019-09-09T19:29:21.000Z","00556000002qbkzAAA","2019-09-09T19:29:21.000Z","","","","","","50056000007CQTPAA4","300418290","No","No","No","No","No","1418400","No","No","No","2019-09-09T19:29:19.000Z","2019-09-09T19:29:21.000Z","Success!","null SVC CSS UAT","No","TAT01","2019-09-09T19:29:21.000Z","Sent","","0015600000KSSJ4AAP","00656000007mJbeAAE","1418400","BRUCE  OLSON","Consumer","","","No","No"
"a0x56000000x2CjAAI","false","LTR2019-0000155","01256000000YojQAAS","2019-09-09T21:54:29.000Z","00556000002qbkzAAA","2019-09-09T21:54:34.000Z","00556000002qbkzAAA","2019-09-09T21:54:34.000Z","","","","","","50056000007CREXAA4","300098959","No","No","No","No","No","1118295","No","No","No","2019-09-09T21:54:33.000Z","2019-09-09T21:54:34.000Z","Success!","null SVC CSS UAT","No","OI01","2019-09-09T21:54:34.000Z","Sent","","0015600000KSVnAAAX","00656000007mJrLAAU","1118295","WILDA  JONES","Consumer","","","No","No"
"a0x56000000x2BqAAI","false","LTR2019-0000144","01256000000YojRAAS","2019-09-09T20:48:21.000Z","00556000002qbkzAAA","2019-09-09T20:48:41.000Z","00556000002qbkzAAA","2019-09-09T20:48:41.000Z","","","","","","50056000007CRB4AAO","1016384","No","No","No","No","No","1016085","No","No","No","2019-09-09T20:48:39.000Z","2019-09-09T20:48:41.000Z","Success!","null SVC CSS UAT","No","TAT01","2019-09-09T20:48:41.000Z","Sent","","0015600000KSVfBAAX","00656000007mJnTAAU","1016085","DUANE  MILLER","Consumer","","","No","No"
"a0x56000000x2CoAAI","false","LTR2019-0000156","01256000000YojQAAS","2019-09-09T21:57:56.000Z","00556000002qbkzAAA","2019-09-09T21:58:13.000Z","00556000002qbkzAAA","2019-09-09T21:58:13.000Z","","","","","","50056000007CRGYAA4","300098959","No","No","No","No","No","1118295","No","No","No","2019-09-09T21:58:11.000Z","2019-09-09T21:58:12.000Z","Success!","null SVC CSS UAT","No","OI01","2019-09-09T21:58:13.000Z","Sent","","0015600000KSVnAAAX","00656000007mJrLAAU","1118295","WILDA  JONES","Consumer","","","No","No"
"a0x560000019kxIAAQ","false","LTR2020-0000185","01256000000YojOAAS","2020-09-17T12:28:21.000Z","00556000004DSOCAA4","2020-09-17T12:28:30.000Z","00556000004DSOCAA4","2020-09-17T12:28:30.000Z","","","","","","50056000007SRciAAG","300028669","No","No","No","No","Yes","","No","No","No","2020-09-17T12:28:28.000Z","2020-09-17T12:28:29.000Z","Success!","Amit Tanwar","No","DRL1","2020-09-17T12:28:30.000Z","Sent","","0015600000OOUpiAAH","00656000009cJCpAAM","","","Attorney","","ATTORNEY","No","No"
"a0x560000019kq2AAA","false","LTR2020-0000169","01256000000YojRAAS","2020-09-16T03:46:00.000Z","00556000004DSOCAA4","2020-09-16T18:31:20.000Z","005560000051H0nAAE","2020-09-16T18:31:20.000Z","","","","","","50056000007SRfCAAW","300028670","No","No","No","No","No","1050057","No","No","No","2020-09-16T18:31:19.000Z","2020-09-16T18:31:19.000Z","Success!","Shelly Ludwig","No","TAT01","2020-09-16T18:31:20.000Z","Sent","","0015600000OOUpnAAH","00656000009cJCuAAM","1050057","Tate  Denise","Consumer","","","No","No"
"a0x560000019kq7AAA","false","LTR2020-0000170","01256000000YojOAAS","2020-09-16T04:02:07.000Z","00556000004DSOCAA4","2020-09-16T04:02:07.000Z","00556000004DSOCAA4","2020-09-16T04:02:07.000Z","","","","","","50056000007SRfMAAW","300028672","No","No","No","No","Yes","1050059","No","No","No","","","","","No","DRL1","2020-09-16T04:02:07.000Z","Ready to Send","","0015600000OOUpxAAH","00656000009cJD4AAM","1050059","ORNELAS  SOTERA","Consumer","","","No","Yes"
"a0x56000000ybl5AAA","false","LTR2019-0000164","01256000000nnMnAAI","2019-12-03T20:47:29.000Z","005G0000003H24AIAS","2019-12-03T20:47:39.000Z","005G0000003H24AIAS","2019-12-03T20:47:39.000Z","","","","","","50056000005flOhAAI","300084056","No","No","No","No","No","1104929","No","No","No","2019-12-03T20:47:39.000Z","2019-12-03T20:47:39.000Z","Success!","Data Management","No","PD001","2019-12-03T20:47:39.000Z","Sent","","0015600000FUgPrAAL","00656000006l5sjAAA","1104929","MELISSA  JONES","Consumer","","","No","No"
"a0x560000019l1AAAQ","false","LTR2020-0000200","01256000000YojRAAS","2020-09-17T17:13:04.000Z","00556000004DSOCAA4","2020-09-17T17:13:11.000Z","00556000004DSOCAA4","2020-09-17T17:13:11.000Z","","","","","","50056000007SRfCAAW","300028670","No","No","No","No","No","","No","No","No","2020-09-17T17:13:10.000Z","2020-09-17T17:13:11.000Z","Success!","Amit Tanwar","No","TAT01","2020-09-17T17:13:11.000Z","Sent","","0015600000OOUpnAAH","00656000009cJCuAAM","609498","John  Simth","CSS POA","609498","CSS_POA","No","No"
"a0x560000019l10AAA","false","LTR2020-0000197","01256000000YojOAAS","2020-09-17T16:50:43.000Z","005G0000004HGkjIAG","2020-09-17T16:50:52.000Z","005G0000004HGkjIAG","2020-09-17T16:50:52.000Z","","","","","","50056000007qiHEAAY","300028679","No","No","Yes","No","No","1050066","No","No","No","2020-09-17T16:50:51.000Z","2020-09-17T16:50:51.000Z","Success!","Varun Sharma","No","DRL1","2020-09-17T16:50:52.000Z","Sent","300028679.pdf","0015600000R2YuRAAV","0065600000D0uZPAAZ","1050066","JERNIGAN  EBONY","Consumer","","","Yes","No"
"a0x56000000x2BvAAI","false","LTR2019-0000145","01256000000YojPAAS","2019-09-09T21:05:20.000Z","00556000002qbkzAAA","2019-09-09T21:05:26.000Z","00556000002qbkzAAA","2019-09-09T21:05:26.000Z","","","","","","50056000007CRCMAA4","300090098","No","No","No","No","No","1109969","No","No","No","2019-09-09T21:05:25.000Z","2019-09-09T21:05:26.000Z","Success!","null SVC CSS UAT","Yes","NDRL1","2019-09-09T21:05:26.000Z","Sent","","0015600000KSVj8AAH","00656000007mJoWAAU","1109969","LUIS  JONES","Consumer","","","No","No"
"a0x56000000x2BMAAY","false","LTR2019-0000139","01256000000YojQAAS","2019-09-09T20:21:39.000Z","00556000002qbkzAAA","2019-09-09T20:21:44.000Z","00556000002qbkzAAA","2019-09-09T20:21:44.000Z","","","","","","50056000007CQruAAG","300475120","No","No","No","No","No","1165144","No","No","No","2019-09-09T20:21:43.000Z","2019-09-09T20:21:44.000Z","Success!","null SVC CSS UAT","No","OI01","2019-09-09T20:21:44.000Z","Sent","","0015600000KSV7kAAH","00656000007mJl3AAE","1165144","PATRICIA  JONES","Consumer","","","No","No"
"a0x56000000x28mAAA","false","LTR2019-0000128","01256000000YojOAAS","2019-09-09T19:41:21.000Z","00556000002qbkzAAA","2019-09-09T19:41:44.000Z","00556000002qbkzAAA","2019-09-09T19:41:44.000Z","","","","","","50056000007CQTyAAO","300397392","No","No","No","No","No","1397394","No","No","Yes","2019-09-09T19:41:43.000Z","2019-09-09T19:41:44.000Z","Success!","null SVC CSS UAT","No","DRL1","2019-09-09T19:41:44.000Z","Sent","","0015600000KSSQBAA5","00656000007mJeWAAU","1397394","NOVELA  JONES","Consumer","","","No","No"
"a0x560000019kxXAAQ","false","LTR2020-0000188","01256000000YojPAAS","2020-09-17T12:37:35.000Z","00556000004DSOCAA4","2020-09-17T12:37:45.000Z","00556000004DSOCAA4","2020-09-17T12:37:45.000Z","","","","","","50056000007SRfHAAW","300028671","No","No","No","No","No","1050058","No","No","No","2020-09-17T12:37:43.000Z","2020-09-17T12:37:44.000Z","Success!","Amit Tanwar","No","NDRL1","2020-09-17T12:37:45.000Z","Sent","","0015600000OOUpsAAH","00656000009cJCzAAM","1050058","Salazar  Alexandra","Consumer","","","No","No"
"a0x560000019kxDAAQ","false","LTR2020-0000184","01256000000YojRAAS","2020-09-17T12:01:45.000Z","00556000004DSOCAA4","2020-09-17T12:01:54.000Z","00556000004DSOCAA4","2020-09-17T12:01:54.000Z","","","","","","50056000007SRf7AAG","300028668","No","No","No","No","No","1050055","No","No","No","2020-09-17T12:01:53.000Z","2020-09-17T12:01:54.000Z","Success!","Amit Tanwar","No","TAT01","2020-09-17T12:01:54.000Z","Sent","","0015600000OOUpdAAH","00656000009cJCkAAM","1050055","Lambert  Terry","Consumer","","","No","No"
"a0x56000000x2AsAAI","false","LTR2019-0000133","01256000000YojOAAS","2019-09-09T20:01:51.000Z","00556000002qbkzAAA","2019-09-09T20:03:04.000Z","00556000002qbkzAAA","2019-09-09T20:03:04.000Z","","","","","","50056000007CQVGAA4","300059860","No","No","No","No","No","1080761","No","Yes","No","2019-09-09T20:03:02.000Z","2019-09-09T20:03:03.000Z","Success!","null SVC CSS UAT","No","DRL1","2019-09-09T20:03:04.000Z","Sent","","0015600000KSUxRAAX","00656000007mJinAAE","1080761","PATRICIA  DOUSETTE","Consumer","","","No","No"
"a0x56000000x2CUAAY","false","LTR2019-0000152","01256000000YojPAAS","2019-09-09T21:25:36.000Z","00556000002qbkzAAA","2019-09-09T21:25:42.000Z","00556000002qbkzAAA","2019-09-09T21:25:42.000Z","","","","","","50056000007CRDoAAO","300127127","No","No","No","No","No","1163001","No","No","No","2019-09-09T21:25:41.000Z","2019-09-09T21:25:42.000Z","Success!","null SVC CSS UAT","Yes","NDRL1","2019-09-09T21:25:42.000Z","Sent","","0015600000KSVlEAAX","00656000007mJqDAAU","1163001","MARCI         L  JONES","Co-Borrower","","","No","No"
"a0x56000000x2BlAAI","false","LTR2019-0000143","01256000000YojRAAS","2019-09-09T20:47:26.000Z","00556000002qbkzAAA","2019-09-09T20:47:46.000Z","00556000002qbkzAAA","2019-09-09T20:47:46.000Z","","","","","","50056000007CRB4AAO","1016384","No","No","No","No","No","1016085","No","No","No","2019-09-09T20:47:45.000Z","2019-09-09T20:47:46.000Z","Success!","null SVC CSS UAT","No","TAT01","2019-09-09T20:47:46.000Z","Sent","","0015600000KSVfBAAX","00656000007mJnTAAU","1016085","DUANE  MILLER","Co-Borrower","","","No","No"
"a0x560000019l1yAAA","false","LTR2020-0000208","01256000000nnMnAAI","2020-09-17T18:17:30.000Z","005G0000004HGkjIAG","2020-09-17T18:17:37.000Z","005G0000004HGkjIAG","2020-09-17T18:17:37.000Z","","","","","","50056000007qiJUAAY","300028705","No","No","No","No","No","","No","No","No","2020-09-17T18:17:36.000Z","2020-09-17T18:17:37.000Z","Success!","Varun Sharma","No","PD001","2020-09-17T18:17:37.000Z","Sent","","0015600000R2Z1hAAF","0065600000D0ufIAAR","609501","one main","CSS POA","609501","CSS_POA","Yes","No"
"a0x56000000x1eNAAQ","false","LTR2019-0000121","01256000000YojRAAS","2019-09-09T17:05:18.000Z","00556000002qbkzAAA","2019-09-09T17:05:35.000Z","00556000002qbkzAAA","2019-09-09T17:05:35.000Z","","","","","","50056000007CQ8eAAG","300511026","No","No","No","No","No","1508011","No","No","No","2019-09-09T17:05:34.000Z","2019-09-09T17:05:35.000Z","Success!","null SVC CSS UAT","No","TAT01","2019-09-09T17:05:35.000Z","Sent","","0015600000KSQqTAAX","00656000007mIWBAA2","1508011","REHAN  KHAN","Consumer","","","No","No"
"a0x56000000x1cEAAQ","false","LTR2019-0000118","01256000000YojRAAS","2019-09-09T16:03:54.000Z","00556000002qbkzAAA","2019-12-03T20:46:13.000Z","005G0000003H24AIAS","2019-12-03T20:46:13.000Z","","","","","","50056000007CQ09AAG","300077244","No","No","No","No","No","1098209","No","No","No","2019-12-03T20:46:12.000Z","2019-12-03T20:46:12.000Z","Success!","Data Management","No","TAT01","2019-12-03T20:46:13.000Z","Sent","","0015600000KSQ3zAAH","00656000007mIEfAAM","1098209","ERIKA  JONES","Consumer","","","No","No"
"a0x56000000m9SWAAY","false","LTR2019-0000117","01256000000YojOAAS","2019-07-01T16:16:40.000Z","00556000002qbkzAAA","2019-07-01T16:16:45.000Z","00556000002qbkzAAA","2019-07-01T16:16:45.000Z","","","","","","50056000005z19wAAA","300004802","No","No","No","No","No","1026800","No","No","No","2019-07-01T16:16:44.000Z","2019-07-01T16:16:45.000Z","Success!","null SVC CSS UAT","No","DRL1","2019-07-01T16:16:45.000Z","Sent","","0015600000FUggTAAT","00656000006l5u6AAA","1026800","JOHNSON  ARIEL","Consumer","","","No","No"
"a0x56000000lydzAAA","false","LTR2019-0000074","01256000000YojOAAS","2019-06-14T06:53:10.000Z","00556000002qbkzAAA","2019-06-14T06:57:13.000Z","00556000002qbkzAAA","2019-06-14T06:57:13.000Z","","","","","","50056000005flPDAAY","300127000","No","No","No","No","No","1146325","No","No","No","2019-06-14T06:57:11.000Z","2019-06-14T06:57:12.000Z","Success!","null SVC CSS UAT","No","DRL1","2019-06-14T06:57:13.000Z","Sent","","0015600000FUkrHAAT","00656000006l6YWAAY","1146325","ANDRE  JONES","Consumer","","","No","No"
"a0x56000000lye9AAA","false","LTR2019-0000076","01256000000YojPAAS","2019-06-14T07:02:09.000Z","00556000002qbkzAAA","2019-06-14T20:27:02.000Z","00556000002qalrAAA","2019-06-14T20:27:02.000Z","","","","","","50056000005gYzKAAU","300056675","No","Yes","No","No","No","1077575","No","No","No","2019-06-14T07:02:38.000Z","2019-06-14T07:02:39.000Z","Success!","null SVC CSS UAT","No","NDRL1","2019-06-14T20:27:02.000Z","Missing Media","","0015600000Fr90BAAR","00656000006mOF4AAM","1077575","CHESTER  ABBOT","Consumer","","","No","No"
"a0x56000000lykkAAA","false","LTR2019-0000079","01256000000YojRAAS","2019-06-14T18:48:24.000Z","00556000002qbkzAAA","2019-06-14T20:27:02.000Z","00556000002qalrAAA","2019-06-14T20:27:02.000Z","","","","","","50056000005i1e1AAA","300036187","No","No","Yes","No","No","1000239","No","No","No","2019-06-14T18:48:41.000Z","2019-06-14T18:48:42.000Z","Success!","null SVC CSS UAT","No","TAT01","2019-06-14T20:27:02.000Z","Missing Media","300036187.pdf","0015600000Fr8y0AAB","00656000006mODmAAM","1000239","ANDREW  AASEN","Consumer","","","No","No"
"a0x56000000lzDdAAI","false","LTR2019-0000085","01256000000YojOAAS","2019-06-19T10:39:50.000Z","00556000002qbkzAAA","2019-06-19T10:39:50.000Z","00556000002qbkzAAA","2019-06-19T10:39:50.000Z","","","","","","50056000005flPEAAY","300128153","No","No","Yes","No","Yes","1146909","No","No","No","","","","","No","DRL1","2019-06-19T10:39:50.000Z","Ready to Send","300128153.pdf","0015600000FUkrRAAT","00656000006l6YbAAI","1146909","JAN  JONES","Consumer","","","No","Yes"
"a0x56000000lzKFAAY","false","LTR2019-0000092","01256000000YojQAAS","2019-06-20T16:37:58.000Z","00556000002qbkzAAA","2019-06-20T16:38:14.000Z","00556000002qbkzAAA","2019-06-20T16:38:14.000Z","","","","","","50056000005gYyHAAU","300012413","No","No","Yes","No","No","","No","No","No","2019-06-20T16:38:13.000Z","2019-06-20T16:38:14.000Z","Success!","null SVC CSS UAT","No","OI01","2019-06-20T16:38:14.000Z","Sent","300012413.pdf","0015600000Fr8eFAAR","00656000006mO5sAAE","413","Neha  Choudhary","Attorney","413","ATTORNEY","Yes","No"
"a0x56000000lzK0AAI","false","LTR2019-0000089","01256000000YojPAAS","2019-06-20T16:17:39.000Z","00556000002qbkzAAA","2019-06-20T16:18:09.000Z","00556000002qbkzAAA","2019-06-20T16:18:09.000Z","","","","","","50056000005flOrAAI","300062798","Yes","Yes","Yes","No","No","1083896","No","No","No","2019-06-20T16:18:08.000Z","2019-06-20T16:18:09.000Z","Success!","null SVC CSS UAT","No","NDRL1","2019-06-20T16:18:09.000Z","Sent","300062798.pdf","0015600000FUkmRAAT","00656000006l6WBAAY","1083896","Julia  Tamayo","Consumer","","","Yes","No"
"a0x56000000x2CZAAY","false","LTR2019-0000153","01256000000YojRAAS","2019-09-09T21:46:31.000Z","00556000002qbkzAAA","2019-09-09T21:46:46.000Z","00556000002qbkzAAA","2019-09-09T21:46:46.000Z","","","","","","50056000007CREIAA4","300085342","No","No","No","No","No","1106100","No","No","No","2019-09-09T21:46:44.000Z","2019-09-09T21:46:46.000Z","Success!","null SVC CSS UAT","No","TAT01","2019-09-09T21:46:46.000Z","Sent","","0015600000KSVmHAAX","00656000007mJqmAAE","1106100","EDIANE  JONES","Consumer","","","No","No"
"a0x56000000x2C0AAI","false","LTR2019-0000146","01256000000YojRAAS","2019-09-09T21:07:34.000Z","00556000002qbkzAAA","2019-09-09T21:07:40.000Z","00556000002qbkzAAA","2019-09-09T21:07:40.000Z","","","","","","50056000007CRCRAA4","300442081","No","No","No","No","No","1149778","No","No","No","2019-09-09T21:07:38.000Z","2019-09-09T21:07:40.000Z","Success!","null SVC CSS UAT","No","TAT01","2019-09-09T21:07:40.000Z","Sent","","0015600000KSVjNAAX","00656000007mJobAAE","1149778","JENNIFER  JONES","Co-Borrower","","","No","No"
"a0x56000000x2C5AAI","false","LTR2019-0000147","01256000000YojRAAS","2019-09-09T21:09:01.000Z","00556000002qbkzAAA","2019-09-09T21:09:07.000Z","00556000002qbkzAAA","2019-09-09T21:09:07.000Z","","","","","","50056000007CRCWAA4","300089630","No","No","No","No","No","1125827","No","No","No","2019-09-09T21:09:06.000Z","2019-09-09T21:09:07.000Z","Success!","null SVC CSS UAT","No","TAT01","2019-09-09T21:09:07.000Z","Sent","","0015600000KSVjXAAX","00656000007mJoqAAE","1125827","ROBERT  JONES","Co-Borrower","","","No","No"
"a0x560000019l1tAAA","false","LTR2020-0000207","01256000000YojQAAS","2020-09-17T18:14:22.000Z","005G0000004HGkjIAG","2020-09-17T18:14:29.000Z","005G0000004HGkjIAG","2020-09-17T18:14:29.000Z","","","","","","50056000007qiJLAAY","300028704","No","No","No","No","No","","No","No","No","2020-09-17T18:14:28.000Z","2020-09-17T18:14:28.000Z","Success!","Varun Sharma","No","OI01","2020-09-17T18:14:29.000Z","Sent","","0015600000R2Z1XAAV","0065600000D0uf8AAB","609500","One main","Attorney","609500","ATTORNEY","No","No"
"a0x560000019ksmAAA","false","LTR2020-0000178","01256000000YojOAAS","2020-09-16T15:46:15.000Z","00516000006YNQUAA4","2020-09-16T15:46:16.000Z","00516000006YNQUAA4","2020-09-16T15:46:16.000Z","","","","","","50056000005fw3OAAQ","300101734","No","No","Yes","No","No","1121019","No","No","No","","","","","No","DRL1","2020-09-16T15:46:16.000Z","Ready to Send","300101734.pdf","0015600000FUkqYAAT","00656000006l6XnAAI","1121019","JASON  JONES","Consumer","","","No","Yes"
"a0x56000000xBxiAAE","false","LTR2019-0000160","01256000000YojRAAS","2019-09-13T20:44:30.000Z","00556000002qbkzAAA","2019-09-13T20:45:09.000Z","00556000002qbkzAAA","2019-09-13T20:45:09.000Z","","","","","","50056000007CbIVAA0","300499057","No","No","No","No","No","1495344","No","No","No","2019-09-13T20:45:08.000Z","2019-09-13T20:45:09.000Z","Success!","null SVC CSS UAT","No","TAT01","2019-09-13T20:45:09.000Z","Sent","","0015600000KTr8TAAT","00656000007mhFpAAI","1495344","CLAUDIA  GRIFFIN","Consumer","","","No","No"
"a0x560000019l1UAAQ","false","LTR2020-0000204","01256000000YojOAAS","2020-09-17T18:02:44.000Z","005G0000004HGkjIAG","2020-09-17T18:02:53.000Z","005G0000004HGkjIAG","2020-09-17T18:02:53.000Z","","","","","","50056000007qiIvAAI","300028701","No","No","Yes","No","No","1049963","No","No","No","2020-09-17T18:02:51.000Z","2020-09-17T18:02:52.000Z","Success!","Varun Sharma","No","DRL1","2020-09-17T18:02:52.000Z","Sent","300028701.pdf","0015600000R2Z0jAAF","0065600000D0uejAAB","1049963","LINDNER  LAURA","Consumer","","","No","No"
"a0x560000019l1oAAA","false","LTR2020-0000206","01256000000YojQAAS","2020-09-17T18:09:37.000Z","005G0000004HGkjIAG","2020-09-17T18:09:47.000Z","005G0000004HGkjIAG","2020-09-17T18:09:47.000Z","","","","","","50056000007qiJAAAY","300028703","No","No","No","No","No","1049965","No","No","No","2020-09-17T18:09:46.000Z","2020-09-17T18:09:46.000Z","Success!","Varun Sharma","No","OI01","2020-09-17T18:09:47.000Z","Sent","","0015600000R2Z1NAAV","0065600000D0uf3AAB","1049965","BROWN  MICHIEL","Consumer","","","No","No"
"a0x56000000xBiSAAU","false","LTR2019-0000159","01256000000YojRAAS","2019-09-13T20:09:56.000Z","00556000002qbkzAAA","2019-09-13T20:10:12.000Z","00556000002qbkzAAA","2019-09-13T20:10:12.000Z","","","","","","50056000007Cb70AAC","300070479","No","No","No","No","No","1091177","No","No","No","2019-09-13T20:10:11.000Z","2019-09-13T20:10:12.000Z","Success!","null SVC CSS UAT","No","TAT01","2019-09-13T20:10:12.000Z","Sent","","0015600000KTr3xAAD","00656000007mhE7AAI","1091177","GEORGIA  THOMPSON","Consumer","","","No","No"
"a0x56000000x1eSAAQ","false","LTR2019-0000122","01256000000YojRAAS","2019-09-09T17:09:58.000Z","00556000002qbkzAAA","2019-09-09T17:10:12.000Z","00556000002qbkzAAA","2019-09-09T17:10:12.000Z","","","","","","50056000007CQ93AAG","1019689","No","No","No","No","No","1019391","No","No","No","2019-09-09T17:10:11.000Z","2019-09-09T17:10:12.000Z","Success!","null SVC CSS UAT","No","TAT01","2019-09-09T17:10:12.000Z","Sent","","0015600000KSQsoAAH","00656000007mIWuAAM","1019391","GEORGE  WIMBISH","Consumer","","","No","No"
"a0x56000000x1dyAAA","false","LTR2019-0000119","01256000000YojRAAS","2019-09-09T16:46:35.000Z","00556000002qbkzAAA","2019-09-09T16:47:00.000Z","00556000002qbkzAAA","2019-09-09T16:47:00.000Z","","","","","","50056000007CQ6bAAG","300089517","No","No","No","No","No","1109311","No","No","No","2019-09-09T16:46:58.000Z","2019-09-09T16:47:00.000Z","Success!","null SVC CSS UAT","No","TAT01","2019-09-09T16:47:00.000Z","Sent","","0015600000KSQcWAAX","00656000007mIRAAA2","1109311","DORA  JONES","Consumer","","","No","No"
"a0x56000000x1ehAAA","false","LTR2019-0000125","01256000000YojOAAS","2019-09-09T18:00:38.000Z","00556000002qbkzAAA","2019-09-09T18:00:53.000Z","00556000002qbkzAAA","2019-09-09T18:00:53.000Z","","","","","","50056000007CQ9wAAG","300005890","No","No","No","No","Yes","1027789","No","No","No","2019-09-09T18:00:52.000Z","2019-09-09T18:00:53.000Z","Success!","null SVC CSS UAT","No","DRL1","2019-09-09T18:00:53.000Z","Sent","","0015600000KSR1vAAH","00656000007mIahAAE","1027789","BOTROS  MAGED","Consumer","","","No","No"
"a0x56000000x1eXAAQ","false","LTR2019-0000123","01256000000YojOAAS","2019-09-09T17:38:40.000Z","00556000002qbkzAAA","2019-09-09T17:38:56.000Z","00556000002qbkzAAA","2019-09-09T17:38:56.000Z","","","","","","50056000007CQ9XAAW","300593130","No","No","No","No","No","1508818","No","No","Yes","2019-09-09T17:38:54.000Z","2019-09-09T17:38:56.000Z","Success!","null SVC CSS UAT","No","DRL1","2019-09-09T17:38:56.000Z","Sent","","0015600000KSQyDAAX","00656000007mIZ5AAM","1508818","ALISIA  GILLS","Consumer","","","No","No"
"a0x56000000lxmQAAQ","false","LTR2019-0000046","01256000000YojPAAS","2019-06-11T20:10:44.000Z","00556000002qbkzAAA","2020-03-11T19:42:05.000Z","00556000002qalrAAA","2020-03-11T19:42:05.000Z","","","","","","50056000005gYqSAAU","300014576","Yes","Yes","Yes","No","No","1036372","No","No","No","2019-06-12T16:32:34.000Z","2019-06-12T16:32:35.000Z","Success!","null SVC CSS UAT","No","NDRL1","2020-03-11T19:42:05.000Z","Missing Media","300014576.pdf","0015600000Fr86GAAR","00656000006mNuuAAE","1036372","HOPPER  AARON","Consumer","","","Yes","No"
"a0x56000000lxn9AAA","false","LTR2019-0000055","01256000000YojQAAS","2019-06-11T21:03:28.000Z","00556000002qbkzAAA","2019-06-12T16:46:12.000Z","00556000002qbkzAAA","2019-06-12T16:46:12.000Z","","","","","","50056000005gYyHAAU","300012413","No","No","No","No","No","","No","No","No","2019-06-12T16:46:11.000Z","2019-06-12T16:46:12.000Z","Success!","null SVC CSS UAT","No","OI01","2019-06-12T16:46:12.000Z","Sent","","0015600000Fr8eFAAR","00656000006mO5sAAE","413","Neha  Choudhary","Attorney","413","ATTORNEY","No","No"
"a0x56000000m9MnAAI","false","LTR2019-0000116","01256000000YojOAAS","2019-07-01T04:24:17.000Z","005160000074HkNAAU","2019-07-01T04:24:32.000Z","005160000074HkNAAU","2019-07-01T04:24:32.000Z","","","","","","500560000060rC2AAI","300029992","No","No","No","No","No","1051354","No","No","No","2019-07-01T04:24:32.000Z","2019-07-01T04:24:32.000Z","Error!: Internal Server Error","Katerina Ames","No","DRL1","2019-07-01T04:24:32.000Z","Error","","0015600000EsMudAAF","00656000006kOTqAAM","1051354","MOFFETT  JO","Consumer","","","No","No"
"a0x56000000lxoHAAQ","false","LTR2019-0000069","01256000000YojOAAS","2019-06-11T21:31:14.000Z","00556000002qbkzAAA","2019-06-12T16:49:11.000Z","00556000002qbkzAAA","2019-06-12T16:49:11.000Z","","","","","","50056000005gZ0cAAE","300437793","No","No","No","No","Yes","","No","No","No","2019-06-12T16:49:10.000Z","2019-06-12T16:49:10.000Z","Success!","null SVC CSS UAT","No","DRL1","2019-06-12T16:49:10.000Z","Sent","","0015600000Fr914AAB","00656000006mOFEAA2","","","Co-Borrower","","","No","No"
"a0x56000000lxndAAA","false","LTR2019-0000061","01256000000YojOAAS","2019-06-11T21:18:20.000Z","00556000002qbkzAAA","2019-06-12T16:36:44.000Z","00556000002qbkzAAA","2019-06-12T16:36:44.000Z","","","","","","50056000005gYzFAAU","300029846","No","No","Yes","No","No","1000243","No","No","No","2019-06-12T16:36:43.000Z","2019-06-12T16:36:44.000Z","Success!","null SVC CSS UAT","No","DRL1","2019-06-12T16:36:44.000Z","Sent","300029846.pdf","0015600000Fr8zwAAB","00656000006mOEuAAM","1000243","JAMES  ABBE","Consumer","","","Yes","Yes"
"a0x56000000lxmaAAA","false","LTR2019-0000048","01256000000YojPAAS","2019-06-11T20:34:55.000Z","00556000002qbkzAAA","2019-06-21T16:20:07.000Z","005G0000003H24AIAS","2019-06-21T16:20:07.000Z","","","","","","50056000005gYvNAAU","300016434","No","No","Yes","No","No","1038231","No","No","No","2019-06-21T16:20:05.000Z","2019-06-21T16:20:05.000Z","Success!","Data Management","Yes","NDRL1","2019-06-21T16:20:07.000Z","Sent","300016434.pdf","0015600000Fr8d2AAB","00656000006mO4uAAE","1038231","HOPPE  AARON","Consumer","","","No","No"
"a0x56000000lxo2AAA","false","LTR2019-0000066","01256000000YojRAAS","2019-06-11T21:26:11.000Z","00556000002qbkzAAA","2019-06-12T16:48:05.000Z","00556000002qbkzAAA","2019-06-12T16:48:05.000Z","","","","","","50056000005gZ0IAAU","300047470","No","No","No","No","No","","No","No","No","2019-06-12T16:48:04.000Z","2019-06-12T16:48:05.000Z","Success!","null SVC CSS UAT","No","TAT01","2019-06-12T16:48:05.000Z","Sent","","0015600000Fr8zIAAR","00656000006mOEaAAM","","","Co-Borrower","","","No","No"
"a0x56000000lxnnAAA","false","LTR2019-0000063","01256000000YojOAAS","2019-06-11T21:22:07.000Z","00556000002qbkzAAA","2019-06-12T16:38:27.000Z","00556000002qbkzAAA","2019-06-12T16:38:27.000Z","","","","","","50056000005gYzPAAU","300437793","No","No","Yes","No","No","1438296","No","No","Yes","2019-06-12T16:38:26.000Z","2019-06-12T16:38:27.000Z","Success!","null SVC CSS UAT","No","DRL1","2019-06-12T16:38:27.000Z","Sent","300437793.pdf","0015600000Fr914AAB","00656000006mOFEAA2","1438296","JONATHAN  ABDALLA","Consumer","","","Yes","No"
"a0x56000000lxmGAAQ","false","LTR2019-0000045","01256000000YojOAAS","2019-06-11T16:39:10.000Z","00556000002qbkzAAA","2019-06-11T16:40:26.000Z","00556000002qbkzAAA","2019-06-11T16:40:26.000Z","","","","","","50056000005flOhAAI","300084056","No","No","Yes","No","No","1104929","No","No","No","2019-06-11T16:40:25.000Z","2019-06-11T16:40:26.000Z","Success!","null SVC CSS UAT","No","DRL1","2019-06-11T16:40:26.000Z","Sent","300084056.pdf","0015600000FUgPrAAL","00656000006l5sjAAA","1104929","MELISSA  JONES","Consumer","","","Yes","No"
"a0x56000000ly58AAA","false","LTR2019-0000070","01256000000YojOAAS","2019-06-12T21:21:28.000Z","00556000002qbkzAAA","2019-06-20T22:22:39.000Z","005G0000003H24AIAS","2019-06-20T22:22:39.000Z","","","","","","50056000005gYy7AAE","300016434","No","No","No","No","No","1069632","No","No","No","2019-06-20T22:22:32.000Z","2019-06-20T22:22:34.000Z","Success!","Data Management","No","DRL1","2019-06-20T22:22:39.000Z","Sent","","0015600000Fr8d2AAB","00656000006mO4uAAE","1069632","HOLT  LEONARD","Co-Borrower","","","No","No"
"a0x56000000lyZYAAY","false","LTR2019-0000073","01256000000YojOAAS","2019-06-13T22:40:09.000Z","00556000002qbkzAAA","2019-06-13T22:40:09.000Z","00556000002qbkzAAA","2019-06-13T22:40:09.000Z","","","","","","50056000005hyUsAAI","300197903","No","No","No","No","No","1199102","No","No","No","","","","","No","DRL1","2019-06-13T22:40:09.000Z","Ready to Send","","0015600000FUgeQAAT","00656000006l5trAAA","1199102","JAYLENNE  JONES","Consumer","","","No","No"
"a0x56000000lye4AAA","false","LTR2019-0000075","01256000000YojPAAS","2019-06-14T06:58:56.000Z","00556000002qbkzAAA","2019-06-14T06:59:06.000Z","00556000002qbkzAAA","2019-06-14T06:59:06.000Z","","","","","","50056000005flPDAAY","300127000","No","No","No","No","No","1146325","No","No","No","2019-06-14T06:59:05.000Z","2019-06-14T06:59:06.000Z","Success!","null SVC CSS UAT","No","NDRL1","2019-06-14T06:59:06.000Z","Sent","","0015600000FUkrHAAT","00656000006l6YWAAY","1146325","ANDRE  JONES","Consumer","","","No","No"
"a0x56000000lykfAAA","false","LTR2019-0000078","01256000000YojPAAS","2019-06-14T18:46:45.000Z","00556000002qbkzAAA","2019-06-14T20:27:02.000Z","00556000002qalrAAA","2019-06-14T20:27:02.000Z","","","","","","50056000005i1dcAAA","300016434","No","Yes","Yes","No","No","1038231","No","No","No","2019-06-14T18:46:52.000Z","2019-06-14T18:46:53.000Z","Success!","null SVC CSS UAT","No","NDRL1","2019-06-14T20:27:02.000Z","Missing Media","300016434.pdf","0015600000Fr8d2AAB","00656000006mO4uAAE","1038231","HOPPE  AARON","Consumer","","","No","No"
"a0x56000000lyv4AAA","false","LTR2019-0000082","01256000000YojOAAS","2019-06-17T03:24:39.000Z","00556000002qbkzAAA","2019-06-17T03:25:32.000Z","00556000002qbkzAAA","2019-06-17T03:25:32.000Z","","","","","","50056000005flOiAAI","300008643","No","No","Yes","No","Yes","1030441","No","No","No","2019-06-17T03:25:31.000Z","2019-06-17T03:25:32.000Z","Error!: Internal Server Error","null SVC CSS UAT","No","DRL1","2019-06-17T03:25:32.000Z","Error","300008643.pdf","0015600000FUgQ1AAL","00656000006l5stAAA","1030441","WILLIAMS  A","Consumer","","","No","No"
"a0x56000000lzK5AAI","false","LTR2019-0000090","01256000000YojPAAS","2019-06-20T16:28:56.000Z","00556000002qbkzAAA","2019-06-20T16:29:36.000Z","00556000002qbkzAAA","2019-06-20T16:29:36.000Z","","","","","","50056000005i1bnAAA","300014576","No","Yes","No","No","No","","No","No","No","2019-06-20T16:29:35.000Z","2019-06-20T16:29:36.000Z","Success!","null SVC CSS UAT","No","NDRL1","2019-06-20T16:29:36.000Z","Sent","","0015600000Fr86GAAR","00656000006mNuuAAE","45580","Cersie  Lannister","Attorney","45580","ATTORNEY","No","No"
"a0x56000000lzOhAAI","false","LTR2019-0000100","01256000000YojOAAS","2019-06-20T19:19:03.000Z","00556000002qbkzAAA","2019-06-20T19:21:08.000Z","00556000002qbkzAAA","2019-06-20T19:21:08.000Z","","","","","","50056000005flP1AAI","300151863","No","No","No","No","Yes","1158543","No","No","No","2019-06-20T19:21:07.000Z","2019-06-20T19:21:08.000Z","Success!","null SVC CSS UAT","No","DRL1","2019-06-20T19:21:08.000Z","Sent","","0015600000FUkq4AAD","00656000006l6XJAAY","1158543","SUSAN  JONES","Consumer","","","No","No"
"a0x56000000lzTXAAY","false","LTR2019-0000104","01256000000YojOAAS","2019-06-20T23:50:40.000Z","00556000002qbkzAAA","2019-06-20T23:50:51.000Z","00556000002qbkzAAA","2019-06-20T23:50:51.000Z","","","","","","50056000005z19wAAA","300004802","No","No","Yes","No","Yes","1026800","No","No","No","2019-06-20T23:50:44.000Z","2019-06-20T23:50:44.000Z","Error!: Internal Server Error","null SVC CSS UAT","No","DRL1","2019-06-20T23:50:51.000Z","Ready to Send","300004802.pdf","0015600000FUggTAAT","00656000006l5u6AAA","1026800","JOHNSON  ARIEL","Consumer","","","No","No"
"a0x56000000lzJHAAY","false","LTR2019-0000086","01256000000YojOAAS","2019-06-20T08:14:00.000Z","00556000002qbkzAAA","2019-06-20T08:14:32.000Z","00556000002qbkzAAA","2019-06-20T08:14:32.000Z","","","","","","50056000005flP4AAI","300068862","No","No","No","No","No","1089668","No","No","No","2019-06-20T08:14:30.000Z","2019-06-20T08:14:32.000Z","Success!","null SVC CSS UAT","No","DRL1","2019-06-20T08:14:32.000Z","Sent","","0015600000FUkqOAAT","00656000006l6XdAAI","1089668","JASON  SNOWDEN","Consumer","","","Yes","Yes"
"a0x56000000lzU1AAI","false","LTR2019-0000108","01256000000YojQAAS","2019-06-21T00:04:19.000Z","00556000002qbkzAAA","2019-06-21T00:04:31.000Z","00556000002qbkzAAA","2019-06-21T00:04:31.000Z","","","","","","50056000005flPAAAY","300136231","No","No","No","No","No","1150432","No","No","No","2019-06-21T00:04:22.000Z","2019-06-21T00:04:23.000Z","Error!: Internal Server Error","null SVC CSS UAT","No","OI01","2019-06-21T00:04:31.000Z","Ready to Send","","0015600000FUkqxAAD","00656000006l6YCAAY","1150432","KELSEY  JONES","Consumer","","","No","No"
"a0x56000000x2AOAAY","false","LTR2019-0000129","01256000000YojOAAS","2019-09-09T19:47:28.000Z","00556000002qbkzAAA","2019-09-09T19:47:45.000Z","00556000002qbkzAAA","2019-09-09T19:47:45.000Z","","","","","","50056000007CQUIAA4","300047053","No","No","No","No","Yes","1067685","No","No","No","2019-09-09T19:47:43.000Z","2019-09-09T19:47:44.000Z","Success!","null SVC CSS UAT","No","DRL1","2019-09-09T19:47:45.000Z","Sent","","0015600000KSSUDAA5","00656000007mJgXAAU","1067685","ALLSOP  HELEN","Consumer","","","No","No"
"a0x560000019kx8AAA","false","LTR2020-0000183","01256000000YojRAAS","2020-09-17T11:59:51.000Z","00556000004DSOCAA4","2020-09-17T12:00:05.000Z","00556000004DSOCAA4","2020-09-17T12:00:05.000Z","","","","","","50056000007SRfCAAW","300028670","No","No","No","No","No","1050057","No","No","No","2020-09-17T12:00:03.000Z","2020-09-17T12:00:04.000Z","Success!","Amit Tanwar","No","TAT01","2020-09-17T12:00:05.000Z","Sent","","0015600000OOUpnAAH","00656000009cJCuAAM","1050057","Tate  Denise","Consumer","","","No","No"
"a0x560000019ksNAAQ","false","LTR2020-0000173","01256000000YojRAAS","2020-09-16T15:16:08.000Z","00556000004DSOCAA4","2020-09-16T18:30:14.000Z","005560000051H0nAAE","2020-09-16T18:30:14.000Z","","","","","","50056000007SRfCAAW","300028670","No","No","No","No","No","1050057","No","No","No","2020-09-16T18:30:12.000Z","2020-09-16T18:30:13.000Z","Success!","Shelly Ludwig","No","TAT01","2020-09-16T18:30:13.000Z","Sent","","0015600000OOUpnAAH","00656000009cJCuAAM","1050057","Tate  Denise","Consumer","","","No","No"
"a0x560000019l1FAAQ","false","LTR2020-0000201","01256000000YojPAAS","2020-09-17T17:16:45.000Z","005G0000004HGkjIAG","2020-09-17T17:17:12.000Z","005G0000004HGkjIAG","2020-09-17T17:17:12.000Z","","","","","","50056000007qiHxAAI","300028677","No","No","No","No","No","","No","No","No","","","","","No","NDRL1","2020-09-17T17:16:46.000Z","Ready to Send","","0015600000R2Yx6AAF","0065600000D0uc4AAB","","","CSS POA","","CSS_POA","No","No"
"a0x560000019kt1AAA","false","LTR2020-0000181","01256000000YojOAAS","2020-09-16T15:53:06.000Z","00516000006YNQUAA4","2020-09-16T18:58:41.000Z","00516000006YNQUAA4","2020-09-16T18:58:41.000Z","","","","","","50056000007qdv4AAA","300028670","No","No","Yes","No","No","1050057","No","No","No","2020-09-16T18:58:40.000Z","2020-09-16T18:58:41.000Z","Success!","Brandy Haza","No","DRL1","2020-09-16T18:58:41.000Z","Sent","300028670.pdf","0015600000OOUpnAAH","00656000009cJCuAAM","1050057","Tate  Denise","Consumer","","","No","No"
"a0x56000000x2CPAAY","false","LTR2019-0000151","01256000000YojQAAS","2019-09-09T21:19:16.000Z","00556000002qbkzAAA","2019-09-09T21:19:34.000Z","00556000002qbkzAAA","2019-09-09T21:19:34.000Z","","","","","","50056000007CRDeAAO","300566762","No","No","No","No","No","1540476","No","No","No","2019-09-09T21:19:32.000Z","2019-09-09T21:19:34.000Z","Success!","null SVC CSS UAT","No","OI01","2019-09-09T21:19:34.000Z","Sent","","0015600000KSVkaAAH","00656000007mJpeAAE","1540476","PAMELA  MAHANY","Co-Borrower","","","No","No"
"a0x560000019l1KAAQ","false","LTR2020-0000202","01256000000YojPAAS","2020-09-17T17:17:44.000Z","005G0000004HGkjIAG","2020-09-17T17:17:59.000Z","005G0000004HGkjIAG","2020-09-17T17:17:59.000Z","","","","","","50056000007qiHxAAI","300028677","No","No","No","No","No","","No","No","No","2020-09-17T17:17:58.000Z","2020-09-17T17:17:59.000Z","Success!","Varun Sharma","No","NDRL1","2020-09-17T17:17:59.000Z","Sent","","0015600000R2Yx6AAF","0065600000D0uc4AAB","","","CSS POA","","CSS_POA","No","No"
"a0x560000019l1PAAQ","false","LTR2020-0000203","01256000000YojRAAS","2020-09-17T17:54:10.000Z","005G0000004HGkjIAG","2020-09-17T17:54:19.000Z","005G0000004HGkjIAG","2020-09-17T17:54:19.000Z","","","","","","50056000007qiIWAAY","300028700","No","No","No","No","No","1049962","No","No","No","2020-09-17T17:54:18.000Z","2020-09-17T17:54:19.000Z","Success!","Varun Sharma","No","TAT01","2020-09-17T17:54:19.000Z","Sent","","0015600000R2Z0UAAV","0065600000D0ueeAAB","1049962","LEWIS  DAROLYN","Consumer","","","No","No"
"a0x560000019l15AAA","false","LTR2020-0000199","01256000000YojPAAS","2020-09-17T17:09:50.000Z","005G0000004HGkjIAG","2020-09-17T17:09:50.000Z","005G0000004HGkjIAG","2020-09-17T17:09:50.000Z","","","","","","50056000007qiHnAAI","300028672","No","No","No","No","No","","No","No","No","","","","","No","NDRL1","2020-09-17T17:09:50.000Z","Ready to Send","","0015600000OOUpxAAH","00656000009cJD4AAM","","","CSS POA","","CSS_POA","No","No"
"a0x56000000xGRMAA2","false","LTR2019-0000162","01256000000YojRAAS","2019-09-17T20:07:47.000Z","00556000002qbkzAAA","2019-09-17T20:07:55.000Z","00556000002qbkzAAA","2019-09-17T20:07:55.000Z","","","","","","50056000007CikQAAS","300082060","No","No","No","No","No","1102943","No","No","No","2019-09-17T20:07:54.000Z","2019-09-17T20:07:55.000Z","Success!","null SVC CSS UAT","No","TAT01","2019-09-17T20:07:55.000Z","Sent","","0015600000KUqxMAAT","00656000007mtq4AAA","1102943","MY  JONES","Consumer","","","No","No"
"a0x56000000x1eIAAQ","false","LTR2019-0000120","01256000000YojRAAS","2019-09-09T16:56:54.000Z","00556000002qbkzAAA","2019-09-09T16:57:10.000Z","00556000002qbkzAAA","2019-09-09T16:57:10.000Z","","","","","","50056000007CQ7KAAW","300407734","No","No","No","No","No","1407492","No","No","No","2019-09-09T16:57:09.000Z","2019-09-09T16:57:10.000Z","Success!","null SVC CSS UAT","No","TAT01","2019-09-09T16:57:10.000Z","Sent","","0015600000KSQjNAAX","00656000007mITvAAM","1407492","JOSEPH  BERGER","Consumer","","","No","No"
"a0x56000000x1ecAAA","false","LTR2019-0000124","01256000000YojRAAS","2019-09-09T17:45:49.000Z","00556000002qbkzAAA","2019-09-09T17:45:55.000Z","00556000002qbkzAAA","2019-09-09T17:45:55.000Z","","","","","","50056000007CQ9rAAG","1019689","No","No","No","No","No","1019391","No","No","No","2019-09-09T17:45:54.000Z","2019-09-09T17:45:55.000Z","Success!","null SVC CSS UAT","No","TAT01","2019-09-09T17:45:55.000Z","Sent","","0015600000KSQsoAAH","00656000007mIWuAAM","1019391","GEORGE  WIMBISH","Consumer","","","No","No"
"a0x560000019kn8AAA","false","LTR2020-0000167","01256000000YojRAAS","2020-09-14T06:15:52.000Z","00556000004DSOCAA4","2020-09-14T06:15:54.000Z","00556000004DSOCAA4","2020-09-14T06:15:54.000Z","","","","","","50056000007SRf7AAG","300028668","No","No","Yes","No","No","1050055","No","No","No","","","","","No","TAT01","2020-09-14T06:15:54.000Z","Ready to Send","300028668.pdf","0015600000OOUpdAAH","00656000009cJCkAAM","1050055","Lambert  Terry","Consumer","","","No","No"
"a0x56000000lvvrAAA","false","LTR2019-0000017","01256000000YojPAAS","2019-05-28T16:38:05.000Z","00556000002qbkzAAA","2019-06-21T17:22:00.000Z","005G0000003H24AIAS","2019-06-21T17:22:00.000Z","","","","","","50056000005flOlAAI","300004802","Yes","No","No","","","1026800","","","","2019-06-21T17:21:57.000Z","2019-06-21T17:21:58.000Z","Success!","Data Management","Yes","NDRL1","2019-06-21T17:22:00.000Z","Sent","","0015600000FUggTAAT","00656000006l5u6AAA","1026800","JOHNSON  ARIEL","Consumer","","","No",""
"a0x56000000lvyIAAQ","false","LTR2019-0000040","01256000000YojOAAS","2019-05-28T22:15:54.000Z","00556000002qbkzAAA","2019-05-29T19:53:26.000Z","00556000002qbkzAAA","2019-05-29T19:53:26.000Z","","","","","","50056000005flOsAAI","300084548","No","No","Yes","No","No","1491589","Yes","No","No","2019-05-29T19:53:25.000Z","2019-05-29T19:53:26.000Z","Success!","null SVC CSS UAT","No","DRL1","2019-05-29T19:53:26.000Z","Sent","300084548.pdf","0015600000FUkmbAAD","00656000006l6WGAAY","1491589","SALEM  ABUFREJEH","Co-Borrower","","","No","No"
"a0x56000000lvvXAAQ","false","LTR2019-0000013","01256000000YojPAAS","2019-05-28T16:00:36.000Z","00556000002qbkzAAA","2019-05-29T18:23:30.000Z","00556000002qbkzAAA","2019-05-29T18:23:30.000Z","","","","","","50056000005flOrAAI","300062798","No","Yes","Yes","","","","","","","2019-05-29T18:23:29.000Z","2019-05-29T18:23:30.000Z","Success!","null SVC CSS UAT","No","NDRL1","2019-05-29T18:23:30.000Z","Sent","300062798.pdf","0015600000FUkmRAAT","00656000006l6WBAAY","45432","Legal  Eagle","Attorney","45432","ATTORNEY","Yes",""
"a0x56000000lvwaAAA","false","LTR2019-0000026","01256000000YojRAAS","2019-05-28T17:01:44.000Z","00556000002qbkzAAA","2019-05-29T19:05:38.000Z","00556000002qbkzAAA","2019-05-29T19:05:38.000Z","","","","","","50056000005flOwAAI","300108322","","","No","No","","","","","","2019-05-29T19:05:37.000Z","2019-05-29T19:05:38.000Z","Success!","null SVC CSS UAT","","TAT01","2019-05-29T19:05:38.000Z","Sent","","0015600000FUkntAAD","00656000006l6WfAAI","45435","Steven  Johnson","CSS POA","45435","CSS_POA","No",""
"a0x56000000lvwQAAQ","false","LTR2019-0000024","01256000000YojRAAS","2019-05-28T16:59:31.000Z","00556000002qbkzAAA","2019-05-29T19:02:10.000Z","00556000002qbkzAAA","2019-05-29T19:02:10.000Z","","","","","","50056000005flPAAAY","300136231","","","Yes","No","","","","","","2019-05-29T19:02:09.000Z","2019-05-29T19:02:10.000Z","Success!","null SVC CSS UAT","","TAT01","2019-05-29T19:02:10.000Z","Sent","300136231.pdf","0015600000FUkqxAAD","00656000006l6YCAAY","23786","DMB Financial 1000220","CSS POA","23786","CSS_POA","No",""
"a0x56000000lvycAAA","false","LTR2019-0000043","01256000000YojOAAS","2019-05-28T22:31:35.000Z","00556000002qbkzAAA","2019-05-29T19:56:49.000Z","00556000002qbkzAAA","2019-05-29T19:56:49.000Z","","","","","","50056000005flOxAAI","300106641","No","No","No","No","No","","No","No","No","2019-05-29T19:56:48.000Z","2019-05-29T19:56:49.000Z","Success!","null SVC CSS UAT","No","DRL1","2019-05-29T19:56:49.000Z","Sent","","0015600000FUknyAAD","00656000006l6WpAAI","45437","Legalette  Eagleton","Attorney","45437","ATTORNEY","No","Yes"
"a0x56000000lvvcAAA","false","LTR2019-0000014","01256000000YojRAAS","2019-05-28T16:25:59.000Z","00556000002qbkzAAA","2019-05-29T19:06:28.000Z","00556000002qbkzAAA","2019-05-29T19:06:28.000Z","","","","","","50056000005flOxAAI","300106641","","","Yes","No","","","","","","2019-05-29T19:06:27.000Z","2019-05-29T19:06:28.000Z","Success!","null SVC CSS UAT","","TAT01","2019-05-29T19:06:28.000Z","Sent","300106641.pdf","0015600000FUknyAAD","00656000006l6WpAAI","45437","Legalette  Eagleton","Attorney","45437","ATTORNEY","Yes",""
"a0x56000000lvxyAAA","false","LTR2019-0000037","01256000000YojOAAS","2019-05-28T21:45:40.000Z","00556000002qbkzAAA","2019-05-29T19:16:00.000Z","00556000002qbkzAAA","2019-05-29T19:16:00.000Z","","","","","","50056000005flP5AAI","1018895","No","No","No","No","No","","No","No","Yes","2019-05-29T19:15:59.000Z","2019-05-29T19:16:00.000Z","Success!","null SVC CSS UAT","No","DRL1","2019-05-29T19:16:00.000Z","Sent","","0015600000FUkqTAAT","00656000006l6XiAAI","45441","Legalette  Eagleton","Attorney","45441","ATTORNEY","No","No"
"a0x56000000lvwLAAQ","false","LTR2019-0000023","01256000000YojRAAS","2019-05-28T16:58:13.000Z","00556000002qbkzAAA","2019-06-06T18:04:05.000Z","00556000002qalrAAA","2019-06-06T18:04:05.000Z","","","","","","50056000005flOtAAI","300002969","","","No","No","","1024769","","","","2019-05-29T18:59:32.000Z","2019-05-29T18:59:33.000Z","Success!","null SVC CSS UAT","","TAT01","2019-06-06T18:04:05.000Z","Missing Media","","0015600000FUknUAAT","00656000006l6WLAAY","1024769","GUERRA  JOSE","Consumer","","","Yes",""
"a0x56000000lvxFAAQ","false","LTR2019-0000028","01256000000YojRAAS","2019-05-28T19:07:43.000Z","00556000002qbkzAAA","2019-06-06T18:04:05.000Z","00556000002qalrAAA","2019-06-06T18:04:05.000Z","","","","","","50056000005flOzAAI","300093439","","","Yes","No","","1113188","","","","2019-05-29T19:07:46.000Z","2019-05-29T19:07:46.000Z","Success!","null SVC CSS UAT","","TAT01","2019-06-06T18:04:05.000Z","Missing Media","300093439.pdf","0015600000FUkpkAAD","00656000006l6WzAAI","1113188","JESUS  JONES","Consumer","","","No",""
"a0x56000000lvxeAAA","false","LTR2019-0000033","01256000000YojPAAS","2019-05-28T20:39:39.000Z","00556000002qbkzAAA","2019-05-29T18:48:44.000Z","00556000002qbkzAAA","2019-05-29T18:48:44.000Z","","","","","","50056000005flP1AAI","300151863","No","No","No","","","1158543","","","","2019-05-29T18:48:43.000Z","2019-05-29T18:48:44.000Z","Success!","null SVC CSS UAT","No","NDRL1","2019-05-29T18:48:44.000Z","Sent","","0015600000FUkq4AAD","00656000006l6XJAAY","1158543","SUSAN  JONES","Consumer","","","No",""
"a0x56000000lvwVAAQ","false","LTR2019-0000025","01256000000YojRAAS","2019-05-28T17:00:26.000Z","00556000002qbkzAAA","2019-06-06T18:04:05.000Z","00556000002qalrAAA","2019-06-06T18:04:05.000Z","","","","","","50056000005flOvAAI","300072802","","","Yes","Yes","","1093908","","","","2019-05-29T19:04:45.000Z","2019-05-29T19:04:46.000Z","Success!","null SVC CSS UAT","","TAT01","2019-06-06T18:04:05.000Z","Missing Media","300072802.pdf","0015600000FUknjAAD","00656000006l6WVAAY","1093908","KATRINA  TINSLEY","Consumer","","","Yes",""
"a0x56000000lvxKAAQ","false","LTR2019-0000029","01256000000YojRAAS","2019-05-28T19:15:06.000Z","00556000002qbkzAAA","2019-06-06T18:04:05.000Z","00556000002qalrAAA","2019-06-06T18:04:05.000Z","","","","","","50056000005flP0AAI","300095842","","","Yes","No","","1115549","","","","2019-05-29T19:08:26.000Z","2019-05-29T19:08:27.000Z","Success!","null SVC CSS UAT","","TAT01","2019-06-06T18:04:05.000Z","Missing Media","300095842.pdf","0015600000FUkpzAAD","00656000006l6XEAAY","1115549","SUZANNEMARIE  JONES","Consumer","","","Yes",""
"a0x56000000lvwBAAQ","false","LTR2019-0000021","01256000000YojQAAS","2019-05-28T16:56:01.000Z","00556000002qbkzAAA","2019-07-16T18:33:18.000Z","005G0000003H24AIAS","2019-07-16T18:33:18.000Z","","","","","","50056000005flOrAAI","300062798","","","No","No","","","","","","2019-07-16T18:33:17.000Z","2019-07-16T18:33:18.000Z","Success!","Data Management","","OI01","2019-07-16T18:33:18.000Z","Sent","","0015600000FUkmRAAT","00656000006l6WBAAY","45432","Legal  Eagle","Attorney","45432","ATTORNEY","Yes",""
"a0x56000000lvxZAAQ","false","LTR2019-0000032","01256000000YojOAAS","2019-05-28T20:28:00.000Z","00556000002qbkzAAA","2019-05-29T19:55:47.000Z","00556000002qbkzAAA","2019-05-29T19:55:47.000Z","","","","","","50056000005flPBAAY","300048285","No","No","No","No","Yes","1069017","No","No","Yes","2019-05-29T19:55:46.000Z","2019-05-29T19:55:47.000Z","Success!","null SVC CSS UAT","No","DRL1","2019-05-29T19:55:47.000Z","Sent","","0015600000FUkr2AAD","00656000006l6YHAAY","1069017","FULLER  SUSAN","Consumer","","","Yes","No"
"a0x56000000lvySAAQ","false","LTR2019-0000041","01256000000YojOAAS","2019-05-28T22:19:57.000Z","00556000002qbkzAAA","2019-05-29T19:54:06.000Z","00556000002qbkzAAA","2019-05-29T19:54:06.000Z","","","","","","50056000005flP9AAI","1011415","No","No","Yes","No","Yes","1010722","No","No","No","2019-05-29T19:54:05.000Z","2019-05-29T19:54:06.000Z","Success!","null SVC CSS UAT","No","DRL1","2019-05-29T19:54:06.000Z","Sent","1011415.pdf","0015600000FUkqsAAD","00656000006l6Y7AAI","1010722","MICHAEL  NEUHAUSER","Consumer","","","No","No"
"a0x56000000lvy8AAA","false","LTR2019-0000038","01256000000YojOAAS","2019-05-28T21:54:35.000Z","00556000002qbkzAAA","2019-05-29T19:16:39.000Z","00556000002qbkzAAA","2019-05-29T19:16:39.000Z","","","","","","50056000005flP6AAI","300101734","No","No","No","No","Yes","","No","No","No","2019-05-29T19:16:38.000Z","2019-05-29T19:16:39.000Z","Success!","null SVC CSS UAT","No","DRL1","2019-05-29T19:16:39.000Z","Sent","","0015600000FUkqYAAT","00656000006l6XnAAI","2810","LORIELLE  COFFE","CSS POA","2810","CSS_POA","Yes","No"
"a0x56000000lvxjAAA","false","LTR2019-0000034","01256000000YojOAAS","2019-05-28T20:43:15.000Z","00556000002qbkzAAA","2019-05-29T19:14:15.000Z","00556000002qbkzAAA","2019-05-29T19:14:15.000Z","","","","","","50056000005flP3AAI","300046848","No","No","Yes","No","No","1067480","No","Yes","No","2019-05-29T19:14:14.000Z","2019-05-29T19:14:14.000Z","Success!","null SVC CSS UAT","No","DRL1","2019-05-29T19:14:15.000Z","Sent","300046848.pdf","0015600000FUkqJAAT","00656000006l6XTAAY","1067480","HOLMES  ANTOINETTE","Consumer","","","Yes","No"
"a0x56000000lxo7AAA","false","LTR2019-0000067","01256000000YojOAAS","2019-06-11T21:27:49.000Z","00556000002qbkzAAA","2019-06-12T16:48:26.000Z","00556000002qbkzAAA","2019-06-12T16:48:26.000Z","","","","","","50056000005gZ0SAAU","300029846","No","No","No","No","Yes","","No","No","No","2019-06-12T16:48:26.000Z","2019-06-12T16:48:26.000Z","Success!","null SVC CSS UAT","No","DRL1","2019-06-12T16:48:26.000Z","Sent","","0015600000Fr8zwAAB","00656000006mOEuAAM","3434","test  attorney test","Attorney","3434","ATTORNEY","No","No"
"a0x56000000lxmfAAA","false","LTR2019-0000049","01256000000YojQAAS","2019-06-11T20:38:57.000Z","00556000002qbkzAAA","2019-06-12T16:34:20.000Z","00556000002qbkzAAA","2019-06-12T16:34:20.000Z","","","","","","50056000005gYvrAAE","300012413","No","No","Yes","No","No","1034310","No","No","No","2019-06-12T16:34:19.000Z","2019-06-12T16:34:20.000Z","Success!","null SVC CSS UAT","No","OI01","2019-06-12T16:34:20.000Z","Sent","300012413.pdf","0015600000Fr8eFAAR","00656000006mO5sAAE","1034310","LIEBERMAN  AARON","Consumer","","","Yes","No"
"a0x56000000lxniAAA","false","LTR2019-0000062","01256000000YojOAAS","2019-06-11T21:20:14.000Z","00556000002qbkzAAA","2019-06-12T16:37:11.000Z","00556000002qbkzAAA","2019-06-12T16:37:11.000Z","","","","","","50056000005gYzKAAU","300056675","No","No","No","No","No","1077575","No","Yes","No","2019-06-12T16:37:10.000Z","2019-06-12T16:37:11.000Z","Success!","null SVC CSS UAT","No","DRL1","2019-06-12T16:37:11.000Z","Sent","","0015600000Fr90BAAR","00656000006mOF4AAM","1077575","CHESTER  ABBOT","Consumer","","","No","No"
"a0x56000000lxnTAAQ","false","LTR2019-0000059","01256000000YojRAAS","2019-06-11T21:14:07.000Z","00556000002qbkzAAA","2019-06-12T16:35:57.000Z","00556000002qbkzAAA","2019-06-12T16:35:57.000Z","","","","","","50056000005gYz0AAE","300067913","No","No","No","No","No","1088618","No","No","No","2019-06-12T16:35:56.000Z","2019-06-12T16:35:57.000Z","Success!","null SVC CSS UAT","No","TAT01","2019-06-12T16:35:57.000Z","Sent","","0015600000Fr8ytAAB","00656000006mOEBAA2","1088618","KARLEA  ABAIR","Consumer","","","No","No"
"a0x56000000lxnOAAQ","false","LTR2019-0000058","01256000000YojRAAS","2019-06-11T21:12:11.000Z","00556000002qbkzAAA","2020-03-11T18:04:35.000Z","00556000002qalrAAA","2020-03-11T18:04:35.000Z","","","","","","50056000005gYyvAAE","300036187","No","No","Yes","No","No","1000239","No","No","No","2019-06-12T16:35:34.000Z","2019-06-12T16:35:35.000Z","Success!","null SVC CSS UAT","No","TAT01","2020-03-11T17:41:07.000Z","Missing Media","300036187.pdf","0015600000Fr8y0AAB","00656000006mODmAAM","1000239","ANDREW  AASEN","Consumer","","","No","No"
"a0x56000000lxmzAAA","false","LTR2019-0000053","01256000000YojPAAS","2019-06-11T20:58:27.000Z","00556000002qbkzAAA","2019-06-12T16:45:28.000Z","00556000002qbkzAAA","2019-06-12T16:45:28.000Z","","","","","","50056000005gYxdAAE","300012546","Yes","Yes","Yes","No","No","","No","No","No","2019-06-12T16:45:27.000Z","2019-06-12T16:45:28.000Z","Success!","null SVC CSS UAT","No","NDRL1","2019-06-12T16:45:28.000Z","Sent","300012546.pdf","0015600000Fr8ZUAAZ","00656000006mO3mAAE","45581","Jamie  Lannister","CSS POA","45581","CSS_POA","No","No"
"a0x56000000lxmVAAQ","false","LTR2019-0000047","01256000000YojPAAS","2019-06-11T20:31:47.000Z","00556000002qbkzAAA","2020-03-11T19:42:05.000Z","00556000002qalrAAA","2020-03-11T19:42:05.000Z","","","","","","50056000005gYvDAAU","300012546","No","Yes","No","No","No","1034444","No","No","No","2019-06-12T16:33:17.000Z","2019-06-12T16:33:18.000Z","Success!","null SVC CSS UAT","No","NDRL1","2020-03-11T19:24:35.000Z","Missing Media","","0015600000Fr8ZUAAZ","00656000006mO3mAAE","1034444","NOVAK  AARON","Consumer","","","No","No"
"a0x56000000lxn4AAA","false","LTR2019-0000054","01256000000YojPAAS","2019-06-11T21:00:54.000Z","00556000002qbkzAAA","2020-03-11T18:04:35.000Z","00556000002qalrAAA","2020-03-11T18:04:35.000Z","","","","","","50056000005gYy7AAE","300016434","Yes","No","No","No","No","1069632","No","No","No","2019-06-12T16:45:48.000Z","2019-06-12T16:45:48.000Z","Success!","null SVC CSS UAT","Yes","NDRL1","2020-03-11T17:41:07.000Z","Missing Media","","0015600000Fr8d2AAB","00656000006mO4uAAE","1069632","HOLT  LEONARD","Co-Borrower","","","No","No"
"a0x56000000lxnxAAA","false","LTR2019-0000065","01256000000YojRAAS","2019-06-11T21:24:47.000Z","00556000002qbkzAAA","2019-06-12T16:47:45.000Z","00556000002qbkzAAA","2019-06-12T16:47:45.000Z","","","","","","50056000005gZ08AAE","300067913","No","No","Yes","No","No","","No","No","No","2019-06-12T16:47:44.000Z","2019-06-12T16:47:44.000Z","Success!","null SVC CSS UAT","No","TAT01","2019-06-12T16:47:45.000Z","Sent","300067913.pdf","0015600000Fr8ytAAB","00656000006mOEBAA2","45585","East  West","CSS POA","45585","CSS_POA","No","No"
"a0x56000000lxnEAAQ","false","LTR2019-0000056","01256000000YojQAAS","2019-06-11T21:05:12.000Z","00556000002qbkzAAA","2019-06-12T16:46:33.000Z","00556000002qbkzAAA","2019-06-12T16:46:33.000Z","","","","","","50056000005gYyWAAU","300034752","No","No","Yes","No","No","","No","No","No","2019-06-12T16:46:32.000Z","2019-06-12T16:46:33.000Z","Success!","null SVC CSS UAT","No","OI01","2019-06-12T16:46:33.000Z","Sent","300034752.pdf","0015600000Fr8fhAAB","00656000006mO7FAAU","45583","Kevin  Shatsang","CSS POA","45583","CSS_POA","Yes","No"
"a0x56000000lyIMAAY","false","LTR2019-0000072","01256000000YojQAAS","2019-06-13T06:11:11.000Z","00556000002qbkzAAA","2019-06-20T22:29:26.000Z","005G0000003H24AIAS","2019-06-20T22:29:26.000Z","","","","","","50056000005flOiAAI","300008643","No","No","No","No","No","1030441","No","No","No","2019-06-20T22:29:24.000Z","2019-06-20T22:29:25.000Z","Success!","Data Management","No","OI01","2019-06-20T22:29:26.000Z","Sent","","0015600000FUgQ1AAL","00656000006l5stAAA","1030441","WILLIAMS  A","Consumer","","","No","No"
"a0x56000000lzJbAAI","false","LTR2019-0000088","01256000000YojOAAS","2019-06-20T10:22:13.000Z","00556000002qbkzAAA","2019-06-20T10:22:31.000Z","00556000002qbkzAAA","2019-06-20T10:22:31.000Z","","","","","","50056000005flOkAAI","300032029","No","No","Yes","No","No","1053208","No","Yes","No","2019-06-20T10:22:30.000Z","2019-06-20T10:22:31.000Z","Error!: Internal Server Error","null SVC CSS UAT","No","DRL1","2019-06-20T10:22:31.000Z","Error","300032029.pdf","0015600000FUggJAAT","00656000006l5twAAA","1053208","MEHMED  AGIC","Consumer","","","No","No"
"a0x56000000lzOcAAI","false","LTR2019-0000099","01256000000YojOAAS","2019-06-20T19:14:27.000Z","00556000002qbkzAAA","2019-06-20T19:14:28.000Z","00556000002qbkzAAA","2019-06-20T19:14:28.000Z","","","","","","50056000005flOiAAI","300008643","No","No","No","No","No","1030441","No","No","No","","","","","No","DRL1","2019-06-20T19:14:28.000Z","New","","0015600000FUgQ1AAL","00656000006l5stAAA","1030441","WILLIAMS  A","Consumer","","","Yes","No"
"a0x56000000lzKKAAY","false","LTR2019-0000093","01256000000YojQAAS","2019-06-20T16:39:01.000Z","00556000002qbkzAAA","2019-06-20T22:55:22.000Z","005G0000003H24AIAS","2019-06-20T22:55:22.000Z","","","","","","50056000005gYw1AAE","300034752","No","No","Yes","No","No","","No","No","No","2019-06-20T22:55:21.000Z","2019-06-20T22:55:21.000Z","Success!","Data Management","No","OI01","2019-06-20T22:55:22.000Z","Sent","300034752.pdf","0015600000Fr8fhAAB","00656000006mO7FAAU","45583","Kevin  Shatsang","CSS POA","45583","CSS_POA","No","No"
"a0x56000000lzJWAAY","false","LTR2019-0000087","01256000000YojOAAS","2019-06-20T09:45:13.000Z","00556000002qbkzAAA","2019-06-20T09:45:52.000Z","00556000002qbkzAAA","2019-06-20T09:45:52.000Z","","","","","","50056000005flPFAAY","300023809","No","No","Yes","No","Yes","1045401","No","No","No","2019-06-20T09:45:51.000Z","2019-06-20T09:45:52.000Z","Success!","null SVC CSS UAT","No","DRL1","2019-06-20T09:45:52.000Z","Sent","300023809.pdf","0015600000FUktNAAT","00656000006l6ZiAAI","1045401","ANDRA  ZASTROW","Consumer","","","No","No"
"a0x56000000lzKZAAY","false","LTR2019-0000096","01256000000YojOAAS","2019-06-20T16:43:00.000Z","00556000002qbkzAAA","2019-06-20T16:43:18.000Z","00556000002qbkzAAA","2019-06-20T16:43:18.000Z","","","","","","50056000005gYzFAAU","300029846","No","No","Yes","No","No","1000243","No","No","No","2019-06-20T16:43:17.000Z","2019-06-20T16:43:18.000Z","Success!","null SVC CSS UAT","No","DRL1","2019-06-20T16:43:18.000Z","Sent","300029846.pdf","0015600000Fr8zwAAB","00656000006mOEuAAM","1000243","JAMES  ABBE","Consumer","","","Yes","Yes"
"a0x56000000lzKPAAY","false","LTR2019-0000094","01256000000YojRAAS","2019-06-20T16:40:48.000Z","00556000002qbkzAAA","2019-06-20T16:41:06.000Z","00556000002qbkzAAA","2019-06-20T16:41:06.000Z","","","","","","50056000005gYzyAAE","300036187","No","No","No","No","No","","No","No","No","2019-06-20T16:41:05.000Z","2019-06-20T16:41:06.000Z","Success!","null SVC CSS UAT","No","TAT01","2019-06-20T16:41:06.000Z","Sent","","0015600000Fr8y0AAB","00656000006mODmAAM","80","AMIT  KUMAR","Attorney","80","ATTORNEY","No","No"
"a0x56000000lzUzAAI","false","LTR2019-0000109","01256000000YojOAAS","2019-06-21T17:20:29.000Z","00556000002qbkzAAA","2019-06-21T17:43:48.000Z","00556000002qbkzAAA","2019-06-21T17:43:48.000Z","","","","","","50056000005flOlAAI","300004802","No","No","No","No","Yes","1026800","No","No","No","2019-06-21T17:43:47.000Z","2019-06-21T17:43:48.000Z","Success!","null SVC CSS UAT","No","DRL1","2019-06-21T17:43:48.000Z","Sent","","0015600000FUggTAAT","00656000006l5u6AAA","1026800","JOHNSON  ARIEL","Consumer","","","No","No"
"a0x56000000lzKAAAY","false","LTR2019-0000091","01256000000YojPAAS","2019-06-20T16:36:26.000Z","00556000002qbkzAAA","2019-06-20T16:36:44.000Z","00556000002qbkzAAA","2019-06-20T16:36:44.000Z","","","","","","50056000005yzc9AAA","300084548","No","No","Yes","No","No","1491589","No","No","No","2019-06-20T16:36:43.000Z","2019-06-20T16:36:43.000Z","Success!","null SVC CSS UAT","Yes","NDRL1","2019-06-20T16:36:44.000Z","Sent","300084548.pdf","0015600000FUkmbAAD","00656000006l6WGAAY","1491589","SALEM  ABUFREJEH","Co-Borrower","","","No","No"
"a0x56000000lvvmAAA","false","LTR2019-0000016","01256000000YojPAAS","2019-05-28T16:37:07.000Z","00556000002qbkzAAA","2019-05-29T18:47:03.000Z","00556000002qbkzAAA","2019-05-29T18:47:03.000Z","","","","","","50056000005flOhAAI","300084056","Yes","Yes","No","","","1429128","","","","2019-05-29T18:47:02.000Z","2019-05-29T18:47:03.000Z","Success!","null SVC CSS UAT","Yes","NDRL1","2019-05-29T18:47:03.000Z","Sent","","0015600000FUgPrAAL","00656000006l5sjAAA","1429128","MOHAMMED  ALMALALLAH","Co-Borrower","","","No",""
"a0x56000000lvvwAAA","false","LTR2019-0000018","01256000000YojQAAS","2019-05-28T16:44:14.000Z","00556000002qbkzAAA","2019-06-06T18:04:05.000Z","00556000002qalrAAA","2019-06-06T18:04:05.000Z","","","","","","50056000005flOhAAI","300084056","","","No","No","","1104929","","","","2019-05-29T18:51:12.000Z","2019-05-29T18:51:13.000Z","Success!","null SVC CSS UAT","","OI01","2019-06-06T18:04:05.000Z","Missing Media","","0015600000FUgPrAAL","00656000006l5sjAAA","1104929","MELISSA  JONES","Consumer","","","Yes",""
"a0x56000000lvyDAAQ","false","LTR2019-0000039","01256000000YojOAAS","2019-05-28T21:58:42.000Z","00556000002qbkzAAA","2019-05-29T19:52:56.000Z","00556000002qbkzAAA","2019-05-29T19:52:56.000Z","","","","","","50056000005flOhAAI","300084056","No","No","Yes","No","No","1429128","No","Yes","No","2019-05-29T19:52:54.000Z","2019-05-29T19:52:55.000Z","Success!","null SVC CSS UAT","No","DRL1","2019-05-29T19:52:56.000Z","Sent","300084056.pdf","0015600000FUgPrAAL","00656000006l5sjAAA","1429128","MOHAMMED  ALMALALLAH","Co-Borrower","","","No","No"
"a0x56000000lvvhAAA","false","LTR2019-0000015","01256000000YojPAAS","2019-05-28T16:36:00.000Z","00556000002qbkzAAA","2019-05-29T18:45:49.000Z","00556000002qbkzAAA","2019-05-29T18:45:49.000Z","","","","","","50056000005flOwAAI","300108322","No","Yes","No","","","","","","","2019-05-29T18:45:48.000Z","2019-05-29T18:45:49.000Z","Success!","null SVC CSS UAT","No","NDRL1","2019-05-29T18:45:49.000Z","Sent","","0015600000FUkntAAD","00656000006l6WfAAI","45435","Steven  Johnson","CSS POA","45435","CSS_POA","Yes",""
"a0x56000000lvyXAAQ","false","LTR2019-0000042","01256000000YojOAAS","2019-05-28T22:26:52.000Z","00556000002qbkzAAA","2019-05-29T19:55:08.000Z","00556000002qbkzAAA","2019-05-29T19:55:08.000Z","","","","","","50056000005flPAAAY","300136231","No","No","Yes","No","No","","No","No","Yes","2019-05-29T19:55:06.000Z","2019-05-29T19:55:07.000Z","Success!","null SVC CSS UAT","No","DRL1","2019-05-29T19:55:08.000Z","Sent","300136231.pdf","0015600000FUkqxAAD","00656000006l6YCAAY","23786","DMB Financial 1000220","CSS POA","23786","CSS_POA","No","No"
"a0x56000000lvxPAAQ","false","LTR2019-0000030","01256000000YojOAAS","2019-05-28T19:22:43.000Z","00556000002qbkzAAA","2019-05-29T19:13:09.000Z","00556000002qbkzAAA","2019-05-29T19:13:09.000Z","","","","","","50056000005flOsAAI","300084548","No","No","No","No","No","1491589","No","No","No","2019-05-29T19:13:08.000Z","2019-05-29T19:13:09.000Z","Success!","null SVC CSS UAT","No","DRL1","2019-05-29T19:13:09.000Z","Sent","","0015600000FUkmbAAD","00656000006l6WGAAY","1491589","SALEM  ABUFREJEH","Co-Borrower","","","Yes","Yes"
"a0x56000000lvxtAAA","false","LTR2019-0000036","01256000000YojOAAS","2019-05-28T20:47:09.000Z","00556000002qbkzAAA","2019-05-29T19:15:26.000Z","00556000002qbkzAAA","2019-05-29T19:15:26.000Z","","","","","","50056000005flOvAAI","300072802","No","No","Yes","Yes","No","1093908","Yes","No","No","2019-05-29T19:15:25.000Z","2019-05-29T19:15:26.000Z","Success!","null SVC CSS UAT","No","DRL1","2019-05-29T19:15:26.000Z","Sent","300072802.pdf","0015600000FUknjAAD","00656000006l6WVAAY","1093908","KATRINA  TINSLEY","Consumer","","","Yes","No"
"a0x56000000lvvSAAQ","false","LTR2019-0000012","01256000000YojPAAS","2019-05-28T15:58:39.000Z","00556000002qbkzAAA","2019-07-01T16:09:25.000Z","005G0000003H24AIAS","2019-07-01T16:09:25.000Z","","","","","","50056000005flOrAAI","300062798","Yes","Yes","Yes","","","1083896","","","","2019-07-01T16:09:24.000Z","2019-07-01T16:09:25.000Z","Success!","Data Management","No","NDRL1","2019-07-01T16:09:25.000Z","Sent","300062798.pdf","0015600000FUkmRAAT","00656000006l6WBAAY","1083896","Julia  Tamayo","Consumer","","","No",""
"a0x56000000lvxAAAQ","false","LTR2019-0000027","01256000000YojRAAS","2019-05-28T19:05:54.000Z","00556000002qbkzAAA","2019-06-06T18:04:05.000Z","00556000002qalrAAA","2019-06-06T18:04:05.000Z","","","","","","50056000005flOsAAI","300084548","","","No","No","","1491589","","","","2019-05-29T19:07:07.000Z","2019-05-29T19:07:08.000Z","Success!","null SVC CSS UAT","","TAT01","2019-06-06T18:04:05.000Z","Missing Media","","0015600000FUkmbAAD","00656000006l6WGAAY","1491589","SALEM  ABUFREJEH","Co-Borrower","","","Yes",""
"a0x56000000lvw6AAA","false","LTR2019-0000020","01256000000YojQAAS","2019-05-28T16:52:35.000Z","00556000002qbkzAAA","2019-06-06T18:04:05.000Z","00556000002qalrAAA","2019-06-06T18:04:05.000Z","","","","","","50056000005flOqAAI","300052831","","","No","Yes","","","","","","2019-05-29T18:53:50.000Z","2019-05-29T18:53:51.000Z","Success!","null SVC CSS UAT","","OI01","2019-06-06T18:04:05.000Z","Missing Media","","0015600000FUkmMAAT","00656000006l6W6AAI","","","Attorney","","ATTORNEY","Yes",""
"a0x56000000lvxUAAQ","false","LTR2019-0000031","01256000000YojOAAS","2019-05-28T19:27:19.000Z","00556000002qbkzAAA","2019-05-29T19:13:42.000Z","00556000002qbkzAAA","2019-05-29T19:13:42.000Z","","","","","","50056000005flOwAAI","300108322","No","No","Yes","No","Yes","1128089","No","No","No","2019-05-29T19:13:41.000Z","2019-05-29T19:13:42.000Z","Success!","null SVC CSS UAT","No","DRL1","2019-05-29T19:13:42.000Z","Sent","300108322.pdf","0015600000FUkntAAD","00656000006l6WfAAI","1128089","STEFANIE  JONES","Consumer","","","No","No"
"a0x56000000lvxoAAA","false","LTR2019-0000035","01256000000YojQAAS","2019-05-28T20:43:52.000Z","00556000002qbkzAAA","2019-05-29T18:52:10.000Z","00556000002qbkzAAA","2019-05-29T18:52:10.000Z","","","","","","50056000005flOxAAI","300106641","","","No","No","","","","","","2019-05-29T18:52:09.000Z","2019-05-29T18:52:10.000Z","Success!","null SVC CSS UAT","","OI01","2019-05-29T18:52:10.000Z","Sent","","0015600000FUknyAAD","00656000006l6WpAAI","45437","Legalette  Eagleton","Attorney","45437","ATTORNEY","No",""
"a0x56000000lvwGAAQ","false","LTR2019-0000022","01256000000YojQAAS","2019-05-28T16:57:04.000Z","00556000002qbkzAAA","2019-06-06T18:04:05.000Z","00556000002qalrAAA","2019-06-06T18:04:05.000Z","","","","","","50056000005flOsAAI","300084548","","","No","No","","1491589","","","","2019-05-29T18:58:53.000Z","2019-05-29T18:58:54.000Z","Success!","null SVC CSS UAT","","OI01","2019-06-06T18:04:05.000Z","Missing Media","","0015600000FUkmbAAD","00656000006l6WGAAY","1491589","SALEM  ABUFREJEH","Co-Borrower","","","No",""
